WeightClassKg,Name,Sex,BirthYear,BodyweightKg,Division,Equipment,Country,Best3SquatKg,Best3BenchKg,Best3DeadliftKg,TotalKg,Event,BirthDate,Place
52,Julia Wychowałek,F,2008,51.9,T1,Wraps,Poland,92.5,37.5,95,225,SBD,,1
67.5,Eliška Lapková,F,2007,64.85,T1,Wraps,Czechia,125,60,125,310,SBD,,1
60,Nadia Wieszczyk,F,2008,57.2,T1,Wraps,Poland,80,45,92.5,217.5,SBD,,2
67.5,Joanna Dobrowolska,F,2005,62.1,T3,Wraps,Poland,115,57.5,115,287.5,SBD,,1
67.5,Nikola Tesařová,F,2003,63.8,T3,Wraps,Czechia,110,60,110,280,SBD,,2
75,Adéla Konšelová,F,2005,72,T3,Wraps,Czechia,135,65,145,345,SBD,,1
56,Tereza Rykrová,F,2001,54.65,J,Wraps,Czechia,132.5,55,140,327.5,SBD,,1
75,Michaela Zemanová,F,2000,69.65,J,Wraps,Czechia,195,97.5,180,472.5,SBD,,1
75,Kamila Mocová,F,2000,73.8,J,Wraps,Czechia,112.5,50,130,292.5,SBD,,2
75,Eva Smetanová,F,2001,68.65,J,Wraps,Czechia,90,45,120,255,SBD,,3
82.5,Nela Pavelková,F,2002,77.2,J,Wraps,Czechia,115,65,130,310,SBD,,1
90,Radana Rohrerová,F,2002,84.3,J,Wraps,Czechia,135,50,160,345,SBD,,1
67.5,Hana Malinová,F,1983,66.5,O,Multi-ply,Czechia,125,60,115,300,SBD,,1
75,Kristýna Kohoutová,F,1996,74.4,O,Wraps,Czechia,175,95,180,450,SBD,,1
75,Michaela Kučerová,F,1998,74.7,O,Wraps,Czechia,142.5,85,162.5,390,SBD,,2
75,Karolína Rybářová,F,1997,74.6,O,Wraps,Czechia,80,40,120,240,SBD,,3
82.5,Viktoria Ernestová,F,1998,78.25,O,Wraps,Czechia,120,65,125,310,SBD,,1
90,Marie Tomečková,F,1998,88.9,O,Wraps,Czechia,190,95,210,495,SBD,,1
90,Dominika Uhrová,F,1997,88,O,Wraps,Czechia,165,80,180,425,SBD,,2
110,Joanna Kruk,F,1977,108.3,M2,Wraps,Poland,122.5,60,130,312.5,SBD,,1
75,Leena Stålstedt,F,1968,72.25,M3,Wraps,Finland,115,90,120,325,SBD,,1
60,Jana Janoušková,F,1960,59.35,M5,Wraps,Czechia,,,,,SBD,,DQ
67.5,Tomáš Pospíšil,M,2008,62.45,T1,Wraps,Czechia,140,80,182.5,402.5,SBD,,1
110,Michal Kastner,M,2008,107,T1,Wraps,Czechia,165,100,160,425,SBD,,1
60,Vojtěch Svoboda,M,2005,58.05,T2,Wraps,Czechia,150,87.5,180,417.5,SBD,,1
67.5,Máté Faragó,M,2007,65.95,T2,Wraps,Hungary,165,102.5,192.5,460,SBD,,1
67.5,Dominik Zítka,M,2005,66.85,T2,Wraps,Czechia,140,77.5,170,387.5,SBD,,2
75,Vít Vencelides,M,2006,74.4,T2,Wraps,Czechia,200,102.5,222.5,525,SBD,,1
75,Jakub Říha,M,2006,70.75,T2,Wraps,Czechia,135,115,170,420,SBD,,2
75,Maximilien Dunovský,M,2006,70.7,T2,Wraps,Czechia,165,70,160,395,SBD,,3
75,Petr Kalivoda,M,2005,68.5,T2,Wraps,Czechia,210,90,,,SBD,,DQ
82.5,Radek Pospíšil,M,2005,80.1,T2,Wraps,Czechia,170,130,215,515,SBD,,1
82.5,Martin Čurda,M,2006,76.95,T2,Wraps,Czechia,150,90,185,425,SBD,,2
82.5,Nikolas Nezval,M,2006,81.35,T2,Wraps,Czechia,145,65,165,375,SBD,,3
90,Ondřej Ščuglík,M,2006,84.9,T2,Wraps,Czechia,300,157.5,260,717.5,SBD,,1
90,Filip Zajíček,M,2005,89.65,T2,Wraps,Czechia,260,132.5,280,672.5,SBD,,2
90,Jakub Jarończyk,M,2005,88.65,T2,Wraps,Poland,230,132.5,240,602.5,SBD,,3
110,Lukáš Jodas,M,2005,105.8,T2,Wraps,Czechia,200,132.5,190,522.5,SBD,,1
125,Jan Lacina,M,2005,110.3,T2,Wraps,Czechia,270,150,300,720,SBD,,1
140,Martin Bláha,M,2006,136.6,T2,Wraps,Czechia,280,180,255,715,SBD,,1
82.5,Petr Gerberg,M,2004,79.55,T3,Wraps,Czechia,217.5,127.5,215,560,SBD,,1
82.5,František Straka,M,2005,77.5,T3,Wraps,Czechia,190,105,220,515,SBD,,2
82.5,Tobiáš Švec,M,2004,80.75,T3,Wraps,Czechia,155,105,190,450,SBD,,3
90,Antonín Lejsek,M,2004,86.3,T3,Wraps,Czechia,220,105,240,565,SBD,,1
90,Vojtěch Zeman,M,2004,86.5,T3,Wraps,Czechia,200,125,225,550,SBD,,2
90,Pavel Jonák,M,2004,88.8,T3,Wraps,Czechia,,,,,SBD,,DQ
100,Matěj Bělina,M,2003,97.9,T3,Wraps,Czechia,205,110,240,555,SBD,,1
100,Truong An Vu,M,2004,96.55,T3,Wraps,Czechia,215,117.5,195,527.5,SBD,,2
100,Jakub Čurda,M,2003,99.95,T3,Wraps,Czechia,170,120,215,505,SBD,,3
67.5,Tomáš Kunz,M,2002,65.75,J,Multi-ply,Czechia,215,122.5,185,522.5,SBD,,1
67.5,Stanislav Pech,M,2001,66.9,J,Wraps,Czechia,152.5,90,195,437.5,SBD,,1
67.5,Georgii Avdokhin,M,2000,67,J,Wraps,Czechia,125,75,140,340,SBD,,2
75,Adam Keřlík,M,2001,74.35,J,Wraps,Czechia,240,130,245,615,SBD,,1
75,Martin Chudoba,M,2002,74.2,J,Wraps,Czechia,240,130,240,610,SBD,,2
75,Patrik Oehm,M,2000,72.8,J,Wraps,Czechia,190,110,210,510,SBD,,3
82.5,Matěj Kubíček,M,2000,81.55,J,Wraps,Czechia,280,122.5,280,682.5,SBD,,1
82.5,Dominik Bílý,M,2001,80.05,J,Wraps,Czechia,225,140,220,585,SBD,,2
82.5,Daniel Převrátil,M,2002,80.7,J,Wraps,Czechia,190,127.5,220,537.5,SBD,,3
90,Jan Cafourek,M,2002,89.75,J,Wraps,Czechia,240,140,280,660,SBD,,1
100,Adam Kyzlink,M,2002,100,J,Wraps,Czechia,255,152.5,260,667.5,SBD,,1
110,Ondřej Štěpán,M,1999,104.9,J,Wraps,Czechia,280,155,270,705,SBD,,1
125,Martin Medvedyk,M,1999,123.1,J,Wraps,Czechia,370,180,330,880,SBD,,1
125,Adam Egermaier,M,2000,120.1,J,Wraps,Czechia,305,190,305,800,SBD,,2
125,František Haluza,M,2000,111.7,J,Wraps,Czechia,232.5,140,235,607.5,SBD,,3
125,Daniel Synek,M,2002,122.7,J,Wraps,Czechia,280,140,,,SBD,,DQ
140+,Luboš Klinecký,M,1999,189.1,J,Wraps,Czechia,280,185,310,775,SBD,,1
75,Martin Ürban,M,1991,73.1,O,Wraps,Czechia,200,145,235,580,SBD,,1
75,Michael Štěpánek,M,1995,74.7,O,Wraps,Czechia,215,110,250,575,SBD,,2
75,David Bíško,M,1999,73.85,O,Wraps,Czechia,130,100,180,410,SBD,,3
82.5,Jakub Dušek,M,1991,81.95,O,Wraps,Czechia,285,140,280,705,SBD,,1
82.5,Pawel Mrzygłocki,M,1993,81.1,O,Wraps,Poland,180,120,205,505,SBD,,2
90,Mariusz Marszalik,M,1995,87.25,O,Multi-ply,Poland,315,170,262.5,747.5,SBD,,1
90,Marek Zytka,M,1989,88.9,O,Multi-ply,Poland,285,190,270,745,SBD,,2
90,Markov Svetlozar,M,1995,88.7,O,Wraps,Bulgaria,277.5,205,270,752.5,SBD,,1
90,Mindia Chincharauli,M,1999,89.8,O,Wraps,Georgia,250,190,270,710,SBD,,2
90,Vítězslav Ladýř,M,1993,89.5,O,Wraps,Czechia,270,177.5,240,687.5,SBD,,3
90,Ruslan Safronov,M,1996,89.75,O,Wraps,Czechia,225,167.5,282.5,675,SBD,,4
90,Filip Daněk,M,1998,88.85,O,Wraps,Czechia,220,150,240,610,SBD,,5
90,Ondřej Fidler,M,1997,87.35,O,Wraps,Czechia,230,115,260,605,SBD,,6
90,Tarik Šarak,M,1997,89.4,O,Wraps,Bosnia and Herzegovina,215,145,245,605,SBD,,7
90,Michal Kovář,M,1988,89.15,O,Wraps,Czechia,205,115,230,550,SBD,,8
90,Tomáš Pleskot,M,1993,86.45,O,Wraps,Czechia,160,120,230,510,SBD,,9
100,Viktor Al-Hamid,M,1989,97.45,O,Wraps,Czechia,305,200,300,805,SBD,,1
100,Tomáš Suchánek,M,1999,96.7,O,Wraps,Czechia,270,180,320,770,SBD,,2
100,Richard Novotný,M,1993,95.8,O,Wraps,Czechia,290,160,310,760,SBD,,3
100,Pavel Šámal,M,1998,96.45,O,Wraps,Czechia,270,175,300,745,SBD,,4
100,Lukáš Černý,M,1988,97.8,O,Wraps,Czechia,250,160,270,680,SBD,,5
100,Miroslav Skácel,M,1994,98.45,O,Wraps,Czechia,240,192.5,230,662.5,SBD,,6
100,Dawid Wełna,M,1991,97.25,O,Wraps,Poland,230,170,240,640,SBD,,7
100,Rostislav Chlebek,M,1997,94.75,O,Wraps,Czechia,240,120,240,600,SBD,,8
100,Adam Vašulka,M,2000,99.5,O,Wraps,Czechia,220,125,255,600,SBD,,9
100,Peter Gejdoš,M,1988,92.4,O,Wraps,Czechia,210,145,232.5,587.5,SBD,,10
100,Jakub Chlumecký,M,1999,94.4,O,Wraps,Czechia,170,105,232.5,507.5,SBD,,11
110,Jaroslav Šťastný,M,1996,109.9,O,Wraps,Czechia,350,195,330,875,SBD,,1
110,Matěj Syrovátka,M,1998,103.1,O,Wraps,Czechia,320,225,320,865,SBD,,2
110,Robert Ivanič,M,1998,108.4,O,Wraps,Czechia,300,200,292.5,792.5,SBD,,3
110,Tomáš Hovorka,M,1998,109.7,O,Wraps,Czechia,275,200,315,790,SBD,,4
110,Matěj Svoboda,M,1997,109.4,O,Wraps,Czechia,285,182.5,282.5,750,SBD,,5
110,Alexandre Saingery,M,1988,101.3,O,Wraps,France,270,150,265,685,SBD,,6
110,Jakub Jaroch,M,1995,109.7,O,Wraps,Czechia,190,160,210,560,SBD,,7
110,Leopold Johanson,M,1997,108,O,Wraps,Sweden,180,160,210,550,SBD,,8
110,Ondřej Kratochvíl,M,1985,104.9,O,Wraps,Czechia,160,127.5,250,537.5,SBD,,9
110,Matěj Vácha,M,1998,106.1,O,Wraps,Czechia,190,105,190,485,SBD,,10
110,Andrej Hrnko,M,2003,103,O,Wraps,Slovakia,,,,,SBD,,DQ
125,Vlastimil Šafařík,M,1998,122.4,O,Wraps,Czechia,345,220,300,865,SBD,,1
125,Petr Pastýřík,M,1989,119.2,O,Wraps,Czechia,280,172.5,270,722.5,SBD,,2
125,Jaroslav Horák,M,1994,120.1,O,Wraps,Czechia,210,140,265,615,SBD,,3
140,Jakub Enžl,M,1997,129.3,O,Wraps,Czechia,320,220,340,880,SBD,,1
140,Pavel Urbánek,M,1993,130.7,O,Wraps,Czechia,310,215,320,845,SBD,,2
140,Roman Konečný,M,1994,131.5,O,Wraps,Czechia,280,200,330,810,SBD,,3
140+,Ladislav Kašpar,M,1994,167.1,O,Wraps,Czechia,345,225,355,925,SBD,,1
140+,Václav Miláček,M,1994,159.4,O,Wraps,Czechia,315,170,305,790,SBD,,2
110,Jaroslav Zubko,M,1979,109,M1,Wraps,Czechia,200,175,220,595,SBD,,1
75,Tomáš Šesták,M,1973,74.4,M2,Wraps,Czechia,190,105,230,525,SBD,,1
100,Andriy Yaremus,M,1977,98.35,M2,Multi-ply,Ukraine,235,145,225,605,SBD,,1
100,Zdeněk Tyl,M,1976,99.7,M2,Wraps,Czechia,240,165,250,655,SBD,,1
110,Miroslav Hruška,M,1974,108,M2,Wraps,Czechia,240,190,280,710,SBD,,1
100,Tibor Pukáč,M,1971,98.25,M3,Wraps,Slovakia,255,175,210,640,SBD,,1
110,Davit Mzhavanadze,M,1972,107,M3,Wraps,Georgia,230,160,255,645,SBD,,1
125,Radosav Radusinović,M,1968,120,M3,Multi-ply,Croatia,350,237.5,315,902.5,SBD,,1
75,Roman Mandík,M,1968,74.3,M4,Wraps,Czechia,150,100,175,425,SBD,,1
90,Aleš Pěnčík,M,1964,87.35,M4,Wraps,Czechia,190,100,190,480,SBD,,1
110,František Nováček,M,1964,109,M4,Wraps,Czechia,245,190,260,695,SBD,,1
67.5,Pavel Malina,M,1960,63.05,M5,Multi-ply,Czechia,185,95,150,430,SBD,,1
75,Valeri Matvejev,M,1960,74.65,M5,Wraps,Estonia,150,102.5,172.5,425,SBD,,1
75,Karol Brečka,M,1961,72.7,M5,Multi-ply,Czechia,195,117.5,205,517.5,SBD,,1
82.5,Maczka Mieczyslaw,M,1954,81.05,M6,Multi-ply,Germany,140,107.5,152.5,400,SBD,,1
90,Stanislav Hoza,M,1956,86.35,M6,Multi-ply,Czechia,250,160,220,630,SBD,,1
90,Jan Suda,M,1956,89.95,M6,Wraps,Czechia,115,75,155,345,SBD,,1
75,Boris Laishin,M,1950,70.7,M7,Wraps,Estonia,100,107.5,167.5,375,SBD,,1
82.5,Adam Jasiński,M,1951,79.2,M7,Wraps,Poland,205,92.5,202.5,500,SBD,,1
100,Vladimír Svoboda,M,1952,90.95,M7,Wraps,Czechia,140,95,160,395,SBD,,1
125,Hynek Stružka,M,1951,116,M7,Wraps,Czechia,150,135,170,455,SBD,,1
90,Vilém Žák,M,1942,85.5,M9,Wraps,Czechia,80,75,100,255,SBD,,1
