Sex,Equipment,Division,WeightClassKg,Name,BodyweightKg,Best3SquatKg,Best3BenchKg,Best3DeadliftKg,TotalKg,Event,Place
F,Raw,Amateur Open,48,Johanna Lazo,46.81,49.9,34.02,90.72,174.63,SBD,1
F,Raw,Amateur Open,52,Frances Cheng,50.26,65.77,38.56,92.99,197.31,SBD,1
F,Raw,Pro Open,52,Alissa Mounsey,50.89,95.25,68.04,137.21,300.5,SBD,1
F,Wraps,Amateur Open,52,Briana Del Vecchio,51.94,83.91,56.7,88.45,229.06,SBD,1
F,Wraps,Amateur Juniors 20-23,52,Briana Del Vecchio,51.94,83.91,56.7,88.45,229.06,SBD,1
F,Wraps,Amateur Open,56,Kathy Tsomos,54.98,79.38,43.09,92.99,215.46,SBD,1
F,Wraps,Amateur Submasters 33-39,56,Kathy Tsomos,54.98,79.38,43.09,92.99,215.46,SBD,1
F,Wraps,Amateur Masters 40-44,56,Janesa Calone,54.25,86.18,61.23,136.08,283.5,SBD,1
F,Raw,Amateur Juniors 20-23,56,Susan Kang,54.16,106.59,54.43,113.4,274.42,SBD,1
F,Raw,Amateur Open,56,Jennifer McCombs,54.7,63.5,31.75,86.18,181.44,SBD,4
F,Raw,Amateur Open,56,Meaghan Shea,54.43,83.91,53.3,111.13,248.34,SBD,3
F,Raw,Amateur Open,56,Elizabeth Slotnick,54.7,95.25,54.43,122.47,272.16,SBD,2
F,Raw,Amateur Open,56,Karolin Mantilla,55.07,106.59,63.5,117.93,288.03,SBD,1
F,Wraps,Amateur Teen 18-19,56,Ally Rosen,52.03,92.99,54.43,124.74,272.16,SBD,1
F,Raw,Amateur Open,60,Jessica Byrne,58.51,83.91,47.63,127.01,258.55,SBD,2
F,Raw,Amateur Open,60,Alexa DePasquale,59.69,83.91,72.57,124.74,281.23,SBD,1
F,Raw,Amateur Submasters 33-39,67.5,Inna Koppel,63.32,95.25,47.63,111.13,254.01,SBD,1
F,Wraps,Amateur Masters 55-59,67.5,Joanne Parrella,65.23,68.04,38.56,90.72,197.31,SBD,1
F,Wraps,Amateur Open,67.5,Rachel Held,67.13,117.93,58.97,138.35,315.25,SBD,1
F,Wraps,Pro Juniors 20-23,67.5,Savannah Minnici,65.41,108.86,61.23,158.76,328.85,SBD,1
F,Wraps,Amateur Open,75,Charlene Vasquez,72.3,111.13,61.23,122.47,294.84,SBD,2
F,Wraps,Amateur Submasters 33-39,75,Charlene Vasquez,72.3,111.13,61.23,122.47,294.84,SBD,1
F,Raw,Amateur Open,75,Elyse Velardi,73.12,99.79,68.04,149.69,317.51,SBD,2
F,Raw,Amateur Open,75,Lee Lipsitz,71.12,108.86,72.57,156.49,337.93,SBD,1
F,Raw,Amateur Masters 45-49,75,Lee Lipsitz,71.12,108.86,72.57,156.49,337.93,SBD,1
F,Wraps,Amateur Masters 45-49,82.5,Sharon Morthier,79.74,95.25,45.36,111.13,251.74,SBD,1
F,Raw,Amateur Open,90,Cara Jennings,87.63,120.2,56.7,129.27,306.17,SBD,1
F,Raw,Pro Open,90,Katelyn O'Donnell,88.27,165.56,113.4,183.7,462.66,SBD,1
M,Wraps,Amateur Open,60,Jonathan Chan #1,59.99,154.22,95.25,170.1,419.57,SBD,1
M,Multi-ply,Amateur Open,67.5,Eric Adolph,67.04,249.48,147.42,242.67,639.57,SBD,1
M,Raw,Amateur Juniors 20-23,75,Alex Mollozzi,73.66,138.35,88.45,181.44,408.23,SBD,2
M,Raw,Amateur Juniors 20-23,75,Luke Pelton,74.03,190.51,136.08,217.72,544.31,SBD,1
M,Raw,Amateur Open,75,Calvin Chan,71.21,136.08,108.86,149.69,394.63,SBD,7
M,Raw,Amateur Open,75,Nicholas Gehling,73.94,158.76,104.33,183.7,446.79,SBD,5
M,Raw,Amateur Open,75,Mauro S. Maietta,73.12,151.95,117.93,188.24,458.13,SBD,4
M,Raw,Amateur Open,75,Lee DiNapoli,74.93,185.97,104.33,192.78,483.08,SBD,2
M,Raw,Amateur Open,75,Matthew Basso,72.76,170.1,131.54,204.12,505.76,SBD,1
M,Raw,Amateur Masters 60-64,75,Michael Parrella,74.03,117.93,63.5,154.22,335.66,SBD,1
M,Wraps,Amateur Submasters 33-39,75,Christopher Harrigan,72.03,102.06,90.72,158.76,351.53,SBD,1
M,Wraps,Amateur Open,75,Anthony Lucic,72.57,158.76,99.79,204.12,462.66,SBD,1
M,Wraps,Military Amateur Open,75,Anthony Lucic,72.57,158.76,99.79,204.12,462.66,SBD,1
M,Raw,Amateur Teen 18-19,67.5,Tristan Lopez,66.13,138.35,99.79,226.8,464.93,SBD,1
M,Raw,Amateur Teen 18-19,75,Joey Zoida,73.3,192.78,124.74,249.48,566.99,SBD,1
M,Raw,Amateur Teen 18-19,82.5,Sean Noriega,80.65,238.14,133.81,249.48,621.42,SBD,1
M,Raw,Amateur Teen 18-19,82.5,Nicholas Forelli,78.74,174.63,120.2,192.78,487.61,SBD,1
M,Raw,Amateur Teen 16-17,90,Michael Panas,89.18,192.78,138.35,213.19,544.31,SBD,1
M,Raw,Amateur Teen 18-19,100,Tom Pasquale,97.89,174.63,149.69,192.78,517.1,SBD,2
M,Raw,Amateur Teen 16-17,100,Philip Rossillo,96.71,102.06,104.33,183.7,390.09,SBD,1
F,Wraps,Amateur Submasters 33-39,52,Melissa Ingerman,49.26,77.11,43.09,97.52,217.72,SBD,1
F,Raw,Amateur Juniors 20-23,75,Jackie Brooks,71.58,95.25,58.97,136.08,290.3,SBD,1
F,Wraps,Amateur Open,75,Danielle Hoddinott,73.39,142.88,65.77,163.29,371.95,SBD,1
M,Raw,Amateur Open,60,Manuel Prieto,59.87,154.22,108.86,181.44,444.52,SBD,1
M,Raw,Amateur Open,75,Michael Waters,73.39,142.88,106.59,183.7,433.18,SBD,6
M,Raw,Amateur Open,75,Michael Fitzpatrick,73.66,154.22,108.86,197.31,460.4,SBD,3
M,Raw,Pro Open,75,Todd Henderson,73.94,183.7,92.99,244.94,521.63,SBD,1
M,Raw,Amateur Juniors 20-23,82.5,Henry Halse,79.92,158.76,113.4,199.58,471.74,SBD,3
M,Raw,Amateur Juniors 20-23,82.5,Kevin Guerrero,76.57,165.56,122.47,210.92,498.95,SBD,2
M,Raw,Amateur Juniors 20-23,82.5,Andrew Arifakis,81.01,190.51,120.2,233.6,544.31,SBD,1
M,Raw,Amateur Open,82.5,David Piccirillo,80.92,176.9,97.52,197.31,471.74,SBD,7
M,Raw,Amateur Open,82.5,Brent J Carter,81.47,174.63,111.13,201.85,487.61,SBD,6
M,Raw,Amateur Open,82.5,Grant Smith,79.47,190.51,111.13,195.04,496.68,SBD,5
M,Raw,Amateur Open,82.5,Ynoel Lopez,82.01,142.88,127.01,229.06,498.95,SBD,4
M,Raw,Amateur Open,82.5,Joseph Borrelli,81.28,190.51,133.81,215.46,539.77,SBD,3
M,Raw,Amateur Open,82.5,Kyle Sidle,81.01,206.38,140.61,235.87,582.87,SBD,1
M,Raw,Amateur Open,82.5,Stephen Wokanick,81.65,197.31,131.54,244.94,573.79,SBD,2
M,Wraps,Amateur Juniors 20-23,82.5,David Gueli,78.74,174.63,122.47,195.04,492.15,SBD,1
M,Wraps,Amateur Open,82.5,Kevin Bolanos,81.56,170.1,124.74,206.38,501.22,SBD,1
M,Wraps,Amateur Submasters 33-39,82.5,Kevin Bolanos,81.56,170.1,124.74,206.38,501.22,SBD,1
M,Wraps,Pro Open,82.5,Chris Rodgers,80.47,242.67,136.08,256.28,635.03,SBD,4
M,Raw,Pro Open,82.5,Max Misch,82.46,233.6,149.69,281.23,664.51,SBD,2
M,Raw,Pro Open,82.5,Michael Garozzo,81.56,242.67,147.42,290.3,680.39,SBD,1
M,Wraps,Pro Open,82.5,Eric Grogin,81.56,190.51,124.74,224.53,539.77,SBD,5
M,Raw,Amateur Juniors 20-23,90,Anthony Wan,87.82,140.61,95.25,142.88,378.75,SBD,2
M,Raw,Amateur Juniors 20-23,90,Nick Troetti,86.91,197.31,136.08,274.42,607.81,SBD,1
M,Raw,Amateur Open,90,Anthony Bacarella,88.9,174.63,129.27,238.14,542.04,SBD,3
M,Raw,Amateur Open,90,Jason Millard,87.82,170.1,158.76,278.96,607.81,SBD,2
M,Raw,Amateur Open,90,Rolan Coltherst,88.54,226.8,158.76,272.16,657.71,SBD,1
M,Raw,Amateur Masters 40-44,90,Terence Connor,88.81,226.8,133.81,306.17,666.78,SBD,1
M,Raw,Pro Open,90,Daniel Koffler,88.81,240.4,163.29,272.16,675.85,SBD,1
M,Wraps,Amateur Open,90,Ethan Coleman,88.09,158.76,102.06,238.14,498.95,SBD,4
M,Wraps,Amateur Open,90,Fadi Baaklini,86.18,226.8,142.88,260.82,630.49,SBD,1
M,Wraps,Military Amateur Open,90,Fadi Baaklini,86.18,226.8,142.88,260.82,630.49,SBD,1
M,Wraps,Amateur Submasters 33-39,90,Noyes Harrigan,88.18,165.56,124.74,188.24,478.54,SBD,1
M,Wraps,Amateur Masters 50-54,90,Steve Bunker,87.72,167.83,108.86,183.7,460.4,SBD,1
M,Wraps,Pro Masters 40-44,100,R.Paul Beinlich,98.88,181.44,149.69,249.48,580.6,SBD,1
M,Raw,Amateur Submasters 33-39,100,Derrick Benjamin,91.08,206.38,151.95,285.76,644.1,SBD,1
F,Raw,Amateur Open,75,Rebecca Lorch,72.85,,77.11,,77.11,B,1
M,Multi-ply,Amateur Masters 40-44,90,Paul Emond,89.27,,249.48,,249.48,B,1
M,Raw,Amateur Juniors 20-23,90,John DePasquale,87.82,,129.27,,129.27,B,1
M,Raw,Amateur Open,75,Jason Manenkoff,74.48,,188.24,235.87,424.11,BD,1
M,Raw,Amateur Teen 18-19,90,Jonathan Rodriguez #15,87.45,,136.08,272.16,408.23,BD,1
M,Raw,Amateur Masters 70-74,90,Artie Miller,88.45,,,140.61,140.61,D,1
F,Raw,Amateur Juniors 20-23,60,Kelly Cosgrove,57.88,65.77,43.09,102.06,210.92,SBD,1
M,Wraps,Amateur Juniors 20-23,67.5,Greg Tilleli,66.13,181.44,92.99,206.38,480.81,SBD,1
M,Wraps,Amateur Open,67.5,Garrick Carmenatty,63.87,147.42,127.01,151.95,426.38,SBD,1
M,Raw,Amateur Teen 18-19,75,Joe Connolly,68.22,142.88,79.38,195.04,417.3,SBD,2
M,Raw,Amateur Juniors 20-23,82.5,Adam Spinosa,81.37,183.7,129.27,215.46,528.44,SBD,1
M,Raw,Pro Juniors 20-23,82.5,Joshua Crutch,80.47,233.6,165.56,267.62,666.78,SBD,1
M,Wraps,Pro Open,82.5,Jonathan Volin,80.38,238.14,147.42,249.48,635.03,SBD,3
M,Raw,Pro Open,82.5,Richard Rizzo,81.56,226.8,142.88,290.3,659.98,SBD,1
M,Raw,Amateur Juniors 20-23,90,Benjamin Curran,89.45,149.69,117.93,204.12,471.74,SBD,1
M,Wraps,Amateur Juniors 20-23,90,Aaron Pyrzynski,86.55,247.21,170.1,251.74,669.05,SBD,1
M,Wraps,Amateur Open,90,Roger Rose,86.36,183.7,124.74,224.53,532.97,SBD,3
M,Wraps,Amateur Open,90,Andre Liberato,89.18,192.78,163.29,251.74,607.81,SBD,2
M,Wraps,Amateur Masters 40-44,90,Andre Liberato,89.18,192.78,163.29,251.74,607.81,SBD,1
M,Wraps,Amateur Masters 65-69,90,Roy Gottfried,87.54,192.78,105.46,238.14,536.37,SBD,1
M,Wraps,Pro Open,90,Elish Le,88.72,244.94,131.54,265.35,641.83,SBD,1
M,Raw,Amateur Teen 18-19,100,Kalin Konnerth,96.52,217.72,136.08,235.87,589.67,SBD,1
M,Raw,Amateur Juniors 20-23,100,Tyler Tan,96.8,208.65,129.27,226.8,564.72,SBD,1
M,Raw,Amateur Open,100,Yuriy Paranyuk,97.89,174.63,111.13,226.8,512.56,SBD,2
M,Raw,Amateur Open,100,Joseph Cristando,98.7,204.12,108.86,226.8,539.77,SBD,1
M,Wraps,Amateur Teen 18-19,100,David Alvarez Jr,95.89,183.7,145.15,183.7,512.56,SBD,2
M,Wraps,Amateur Teen 18-19,100,Nicholas Rice,97.07,244.94,165.56,265.35,675.85,SBD,1
M,Wraps,Amateur Juniors 20-23,100,Chris Kelly,95.8,251.74,181.44,249.48,682.66,SBD,1
M,Wraps,Amateur Open,100,Seamus Cullen,94.26,238.14,142.88,249.48,630.49,SBD,1
M,Wraps,Amateur Open,100,Carmine Esposito,97.98,158.76,120.2,195.04,474,SBD,2
M,Raw,Pro Open,100,Richard Tejada,93.89,188.24,151.95,229.06,569.26,SBD,1
M,Wraps,Pro Open,100,Robert Boland,91.4,238.14,158.76,272.16,669.05,SBD,1
M,Wraps,Amateur Teen 18-19,110,Sal D'Ottavio,107.05,226.8,124.74,242.67,594.21,SBD,1
M,Raw,Amateur Open,110,Chase Trusnovec,108.32,272.16,195.04,,,SBD,DQ
M,Raw,Amateur Open,110,Lukasz Sokol,107.32,192.78,145.15,226.8,564.72,SBD,3
M,Raw,Amateur Open,110,Justin Miller,104.78,222.26,158.76,276.69,657.71,SBD,1
M,Raw,Amateur Open,110,Christopher Calderone,102.87,213.19,156.49,249.48,619.15,SBD,2
M,Wraps,Amateur Juniors 20-23,110,Vadim Grel,107.5,260.82,138.35,249.48,648.64,SBD,1
M,Wraps,Amateur Open,110,John Petrizzo,107.86,235.87,158.76,281.23,675.85,SBD,1
M,Raw,Pro Open,110,Anthony Vidal,109.59,276.69,217.72,278.96,773.37,SBD,2
M,Raw,Pro Open,110,Kevin Oak,105.51,337.93,229.06,341.33,908.32,SBD,1
M,Wraps,Pro Juniors 20-23,110,Connor Hoagland,102.24,272.16,172.37,283.5,728.02,SBD,1
M,Wraps,Pro Open,110,Eric Prush,110,272.16,163.29,308.44,743.89,SBD,1
M,Raw,Amateur Juniors 20-23,125,Scott Rossillo,117.03,188.24,138.35,222.26,548.85,SBD,2
M,Raw,Amateur Juniors 20-23,125,Ricardo Salinas,119.75,235.87,158.76,265.35,659.98,SBD,1
M,Raw,Amateur Open,125,Ryan Wozniak,123.56,215.46,127.01,229.06,571.53,SBD,2
M,Raw,Amateur Open,125,Kyle Winters,113.4,233.6,163.29,260.82,657.71,SBD,1
M,Raw,Military Amateur Open,125,Kyle Winters,113.4,233.6,163.29,260.82,657.71,SBD,1
M,Wraps,Amateur Open,125,Danny Watson,121.65,222.26,127.01,233.6,582.87,SBD,2
M,Raw,Amateur Open,125,Michael Wolf,122.11,242.67,183.7,292.57,718.94,SBD,1
M,Wraps,Pro Open,125,Eric Fenton,122.92,351.53,197.31,297.1,845.95,SBD,1
M,Single-ply,Pro Open,140,Ryan Critti,129.64,335.66,242.67,288.03,866.36,SBD,1
M,Raw,Amateur Juniors 20-23,140,Bill Romaniello,126.92,254.01,158.76,238.14,650.91,SBD,1
M,Raw,Amateur Open,140,Jeremey Vasquez,128.64,240.4,176.9,263.08,680.39,SBD,1
M,Wraps,Amateur Juniors 20-23,140,Daven Brigham,127.37,174.63,131.54,229.06,535.24,SBD,1
M,Wraps,Amateur Open,140,Joshua Luis,136.08,283.5,192.78,283.5,759.77,SBD,1
M,Wraps,Military Amateur Open,140,Joshua Luis,136.08,283.5,192.78,283.5,759.77,SBD,1
M,Raw,Pro Open,140,Anthony Bongiorno,132.27,294.84,206.38,308.44,809.66,SBD,2
M,Wraps,Pro Open,140,Domenick Minnici,135.71,362.87,199.58,344.73,907.18,SBD,1
M,Raw,Amateur Open,82.5,Cesar Medina,82.28,,188.24,,188.24,B,1
M,Raw,Amateur Open,100,Anthony Mendez,99.34,,188.24,,188.24,B,1
M,Raw,Amateur Submasters 33-39,100,Perry Pollard,96.62,,199.58,,199.58,B,1
M,Raw,Amateur Open,110,Luke Trian,108.68,,161.03,,161.03,B,2
M,Raw,Amateur Open,110,Daniel Saez,107.77,,195.04,,195.04,B,1
M,Raw,Pro Open,110,Lucas Hughes,106.41,,195.04,,195.04,B,1
M,Single-ply,Pro Open,110,Anthony V. Lotito III,108.41,,231.33,,231.33,B,1
M,Raw,Pro Submasters 33-39,125,Osvaldo Sanchez Jr,117.75,,181.44,,181.44,B,1
M,Multi-ply,Pro Open,125,Gus Breault,120.47,,251.74,,251.74,B,1
M,Raw,Amateur Open,140,Willie T Swiney,132.18,,192.78,,192.78,B,1
M,Raw,Amateur Masters 40-44,140,David Alvarez Sr,131.81,,213.19,,213.19,B,1
M,Raw,Pro Open,140+,Pedro Mejias,202.76,,283.5,,283.5,B,1
M,Raw,Pro Submasters 33-39,140+,Pedro Mejias,202.76,,283.5,,283.5,B,1
M,Raw,Amateur Open,90,Louis Bianchi,87.54,,174.63,274.42,449.06,BD,1
M,Raw,Amateur Open,100,Michael Calderone,92.9,,165.56,238.14,403.7,BD,1
M,Raw,Amateur Open,110,John Albrecht,108.59,,206.38,254.01,460.4,BD,1
M,Raw,Amateur Juniors 20-23,125,Ethan Macura,118.93,,138.35,272.16,410.5,BD,1
M,Raw,Amateur Open,110,Ismail Etienne,107.5,,,244.94,244.94,D,1
M,Raw,Pro Juniors 20-23,125,Mike Powers,120.2,,,317.51,317.51,D,1
