Name,WeightClassKg,Division,AgeRange,Sex,Country,Age,BodyweightKg,Bench1Kg,Bench2Kg,Bench3Kg,Best3BenchKg,Bench4Kg,Deadlift2Kg,Deadlift3Kg,Best3DeadliftKg,Deadlift4Kg,TotalKg,Event,Equipment,Place
Enrique Noj,52,Open,,M,Guatemala,,,,,,117.5,,,,,,117.5,B,Multi-ply,1
Herbeth Garcia,56,Open,,M,Guatemala,,,,,,95,,,,,,95,B,Multi-ply,1
Kerwin Unten,60,Open,,M,,,,,,,165,,,,,,165,B,Multi-ply,1
Monte Hokoana,67.5,Open,,M,,,,,,,165,,,,,,165,B,Multi-ply,1
Kimo Luna,67.5,Open,,M,,,,,,,157.5,,,,,,157.5,B,Multi-ply,2
Mike Montoya,67.5,Open,,M,,,,,,,127.5,,,,,,127.5,B,Multi-ply,3
Sean Kaneshiro,75,Open,,M,,,,,,,202.5,203,,,,,202.5,B,Multi-ply,1
Joe Luther,75,Open,,M,,,,,,,200,,,,,,200,B,Multi-ply,2
Jason Yoshimura,75,Open,,M,,,,,,,197.5,,,,,,197.5,B,Multi-ply,3
Jesse Romero,75,Open,,M,,,,,,,157.5,,,,,,157.5,B,Multi-ply,4
Lee Jones,82.5,Open,,M,,,,,,,217.5,,,,,,217.5,B,Multi-ply,1
John Korn III,82.5,Open,,M,,,,,,,215,,,,,,215,B,Multi-ply,2
Todd Scott,82.5,Open,,M,,,,,,,210,,,,,,210,B,Multi-ply,3
Johnny Hernandez,82.5,Open,,M,,,,,,,205,,,,,,205,B,Multi-ply,4
Allen Berry,82.5,Open,,M,,,,,,,205,,,,,,205,B,Multi-ply,5
Phil Cannizzaro,82.5,Open,,M,,,,,,,195,,,,,,195,B,Multi-ply,6
Patrick Thomas #2,82.5,Open,,M,,,,,,,190,,,,,,190,B,Multi-ply,7
Jeff Jones,82.5,Open,,M,,,,,,,182.5,,,,,,182.5,B,Multi-ply,8
Jayce Picking,82.5,Open,,M,,,,,,,172.5,,,,,,172.5,B,Multi-ply,9
Josh Trewin,82.5,Open,,M,,,,,,,167.5,,,,,,167.5,B,Multi-ply,10
Michael Rainey,82.5,Open,,M,,,,,,,147.5,,,,,,147.5,B,Multi-ply,11
Gustavo Warrington,90,Open,,M,,,,,,,252.5,,,,,,252.5,B,Multi-ply,1
George Herring #1,90,Open,,M,,,,,,,242.5,,,,,,242.5,B,Multi-ply,2
Byron Beebe,90,Open,,M,,,,,,,220,,,,,,220,B,Multi-ply,3
Hoss Rhoton,90,Open,,M,,,,,,,200,,,,,,200,B,Multi-ply,4
Mike Desrosiers,90,Open,,M,,,,,,,195,,,,,,195,B,Multi-ply,5
Phil Davi,90,Open,,M,,19,,,,,185,,,,,,185,B,Multi-ply,6
Mike Ludovico,100,Open,,M,,,,,,,250,,,,,,250,B,Multi-ply,1
Matt LaMarque,100,Open,,M,,,,,,,227.5,,,,,,227.5,B,Multi-ply,2
Craig Nightingale,100,Open,,M,,,,,,,225,,,,,,225,B,Multi-ply,3
Roderick Rogers,100,Open,,M,,,,,,,192.5,,,,,,192.5,B,Multi-ply,4
Gary Lands,100,Open,,M,,,,,,,,,,,,,,B,Multi-ply,DQ
Joe Raynor,100,Open,,M,,,,,,,,,,,,,,B,Multi-ply,DQ
Shane McShane,110,Open,,M,,,,,265,-272.5,265,,,,,,265,B,Multi-ply,1
Arthur Thompson Jr,110,Open,,M,,,,,,,245,,,,,,245,B,Multi-ply,2
Larry Birgado,110,Open,,M,,,,,,,237.5,,,,,,237.5,B,Multi-ply,3
Jeremy Biewer,110,Open,,M,,,,,,,232.5,,,,,,232.5,B,Multi-ply,4
Craig Gallagher,110,Open,,M,,,,,,,230,,,,,,230,B,Multi-ply,5
Jimmee Fullerton,110,Open,,M,,,,,,,227.5,,,,,,227.5,B,Multi-ply,6
Jan Sjogren,110,Open,,M,Sweden,,,,,,225,,,,,,225,B,Multi-ply,7
Tajinder Singh,110,Open,,M,India,,,,,,200,,,,,,200,B,Multi-ply,8
Steve Ross,110,Open,,M,,,,,,,197.5,,,,,,197.5,B,Multi-ply,9
V. Garcia,110,Open,,M,,,,,,,160,,,,,,160,B,Multi-ply,10
Tiny Meeker,125,Open,,M,,,,,,,297.5,,,,,,297.5,B,Multi-ply,1
George Nelson,125,Open,,M,,56,117.93,-255,267.5,-277.5,267.5,,,,,,267.5,B,Multi-ply,2
Bob Vessels,125,Open,,M,,,,,,,227.5,,,,,,227.5,B,Multi-ply,3
Jason Robinson,125,Open,,M,,,,,,,212.5,,,,,,212.5,B,Multi-ply,4
Steve Khader,125,Open,,M,,,,,,,170,,,,,,170,B,Multi-ply,5
Pete Marcoff,125,Open,,M,,,,,,,167.5,,,,,,167.5,B,Multi-ply,6
Ryan Kennelly,140,Open,,M,,,119.75,-320,-320,320,320,,,,,,320,B,Multi-ply,1
Bill Gillespie,140,Open,,M,,,,277.5,290,-295,290,-295,,,,,290,B,Multi-ply,2
Steve Wong,140,Open,,M,,,,,,,287.5,,,,,,287.5,B,Single-ply,3
Tom Manno,140,Open,,M,,,,277.5,-288,-288,277.5,,,,,,277.5,B,Multi-ply,4
Mark Ned,140+,Open,,M,,,,,290,-317.5,290,,,,,,290,B,Multi-ply,1
Tony Lualemaga,140+,Open,,M,,,205.02,,260,-272.5,260,,,,,,260,B,Raw,2
Brian Jackson,140+,Open,,M,,,,,,,255,,,,,,255,B,Multi-ply,3
Thomas McKinney #1,140+,Open,,M,,,,,,,227.5,,,,,,227.5,B,Multi-ply,4
Keith Ward,140+,Open,,M,,,,,,,170,,,,,,170,B,Raw,5
Shane Kido,67.5,Juniors 20-25,20-25,M,,,,,,,152.5,160,,,,,152.5,B,Multi-ply,1
Patrick Schiffner,67.5,Juniors 20-25,20-25,M,Germany,,,,,,150,,,,,,150,B,Multi-ply,2
Daniel Martinez #6,67.5,Juniors 20-25,20-25,M,,,,,,,145,,,,,,145,B,Multi-ply,3
Roger Sanchez,67.5,Juniors 20-25,20-25,M,,,,,,,145,,,,,,145,B,Multi-ply,4
Ryan Snelling,67.5,Juniors 20-25,20-25,M,,,,,,,142.5,,,,,,142.5,B,Multi-ply,5
Donny Engles,67.5,Juniors 20-25,20-25,M,,,,,,,142.5,,,,,,142.5,B,Multi-ply,6
T. Deltrick,67.5,Juniors 20-25,20-25,M,,,,,,,140,,,,,,140,B,Multi-ply,7
Daniel Weekley,67.5,Juniors 20-25,20-25,M,,,,,,,125,,,,,,125,B,Multi-ply,8
R. Johnson,67.5,Juniors 20-25,20-25,M,,,,,,,90,,,,,,90,B,Multi-ply,9
Joe Luther,75,Juniors 20-25,20-25,M,,,,,,,200,,,,,,200,B,Multi-ply,1
Randy Kawabata,75,Juniors 20-25,20-25,M,,,,,,,170,,,,,,170,B,Multi-ply,2
Lee Luther,75,Juniors 20-25,20-25,M,,,,,,,160,,,,,,160,B,Multi-ply,3
Spencer Sequin,75,Juniors 20-25,20-25,M,,,,,,,160,,,,,,160,B,Multi-ply,4
Duane Travis,75,Juniors 20-25,20-25,M,,,,,,,147.5,,,,,,147.5,B,Multi-ply,5
Michael Moore #4,75,Juniors 20-25,20-25,M,,,,,,,125,,,,,,125,B,Multi-ply,6
Gabe Ramos,75,Juniors 20-25,20-25,M,,,,,,,82.5,,,,,,82.5,B,Multi-ply,7
John Korn III,82.5,Juniors 20-25,20-25,M,,,,,,,215,,,,,,215,B,Multi-ply,1
Richard McKeefer,82.5,Juniors 20-25,20-25,M,,,,,,,162.5,,,,,,162.5,B,Multi-ply,2
Jake Thomas,82.5,Juniors 20-25,20-25,M,,,,,,,150,,,,,,150,B,Multi-ply,3
Ernie Mil-Homens,90,Juniors 20-25,20-25,M,Canada,,,,,,205,,,,,,205,B,Multi-ply,1
Hoss Rhoton,90,Juniors 20-25,20-25,M,,,,,,,200,,,,,,200,B,Multi-ply,2
Chad Matthews,90,Juniors 20-25,20-25,M,,,,,,,182.5,,,,,,182.5,B,Multi-ply,3
John Anthony,90,Juniors 20-25,20-25,M,,,,,,,142.5,,,,,,142.5,B,Multi-ply,4
Eric Wright,100,Juniors 20-25,20-25,M,,,,,,,207.5,,,,,,207.5,B,Multi-ply,1
Don Goldsworthy,100,Juniors 20-25,20-25,M,,,,,,,192.5,,,,,,192.5,B,Multi-ply,2
Troy Charley,100,Juniors 20-25,20-25,M,,,,,,,182.5,,,,,,182.5,B,Multi-ply,3
Joshua Schrag,100,Juniors 20-25,20-25,M,,,,,,,165,,,,,,165,B,Multi-ply,4
Kevin Rose,110,Juniors 20-25,20-25,M,,,,,,,217.5,,,,,,217.5,B,Multi-ply,1
Travis Osborne,110,Juniors 20-25,20-25,M,,,,,,,197.5,,,,,,197.5,B,Multi-ply,2
Cody Smith,110,Juniors 20-25,20-25,M,,,,,,,190,,,,,,190,B,Multi-ply,3
Jason McCullough,110,Juniors 20-25,20-25,M,,,,,,,175,,,,,,175,B,Multi-ply,4
B. Backstrom,110,Juniors 20-25,20-25,M,,,,,,,167.5,,,,,,167.5,B,Multi-ply,5
Adam Gruver,110,Juniors 20-25,20-25,M,,,,,,,160,,,,,,160,B,Multi-ply,6
Joel Thiessen,125,Juniors 20-25,20-25,M,Canada,,,,,,210,,,,,,210,B,Multi-ply,1
Cody Sacher,125,Juniors 20-25,20-25,M,,,,,,,200,,,,,,200,B,Multi-ply,2
Andrew Snider,125,Juniors 20-25,20-25,M,,,,,,,187.5,,,,,,187.5,B,Multi-ply,3
Sean Kaneshiro,75,Submasters 34-39,34-39,M,,,,,,,202.5,203,,,,,202.5,B,Multi-ply,1
Steve Ward,75,Submasters 34-39,34-39,M,,,,,,,187.5,,,,,,187.5,B,Multi-ply,2
Vilmar Oliveira,75,Submasters 34-39,34-39,M,Brazil,,,,,,160,165,,,,,160,B,Multi-ply,3
Johnny Hernandez,82.5,Submasters 34-39,34-39,M,,,,,,,205,,,,,,205,B,Multi-ply,1
Allen Berry,82.5,Submasters 34-39,34-39,M,,,,,,,205,,,,,,205,B,Multi-ply,2
Kingston Lee,82.5,Submasters 34-39,34-39,M,,,,,,,190,,,,,,190,B,Multi-ply,3
Edgar Bravo,82.5,Submasters 34-39,34-39,M,Guatemala,,,,,,170,,,,,,170,B,Multi-ply,4
Ed Sim,90,Submasters 34-39,34-39,M,,,,,,,212.5,,,,,,212.5,B,Multi-ply,1
Wendall Omura,90,Submasters 34-39,34-39,M,,,,,,,207.5,,,,,,207.5,B,Multi-ply,2
Fil Dena III,90,Submasters 34-39,34-39,M,,,,,,,190,,,,,,190,B,Multi-ply,3
Gordie Fraser,90,Submasters 34-39,34-39,M,,,,,,,187.5,,,,,,187.5,B,Multi-ply,4
Jason Jackson #7,100,Submasters 34-39,34-39,M,,,,,,,247.5,,,,,,247.5,B,Multi-ply,1
Kenneth Millrany,100,Submasters 34-39,34-39,M,,,,,,,197.5,,,,,,197.5,B,Multi-ply,2
Roderick Rogers,100,Submasters 34-39,34-39,M,,,,,,,192.5,,,,,,192.5,B,Multi-ply,3
David Bradshaw #2,100,Submasters 34-39,34-39,M,,,,,,,182.5,,,,,,182.5,B,Multi-ply,4
Gary Lands,100,Submasters 34-39,34-39,M,,,,,,,,,,,,,,B,Multi-ply,DQ
Russ Kitani,110,Submasters 34-39,34-39,M,,,,,,,257.5,,,,,,257.5,B,Multi-ply,1
Bobby Leitz,110,Submasters 34-39,34-39,M,,,,,,,235,,,,,,235,B,Multi-ply,2
Jan Sjogren,110,Submasters 34-39,34-39,M,Sweden,,,,,,225,,,,,,225,B,Multi-ply,3
Ken Malone,110,Submasters 34-39,34-39,M,,,,,,,195,,,,,,195,B,Multi-ply,4
John Stewart,125,Submasters 34-39,34-39,M,,,,,,,285,,,,,,285,B,Multi-ply,1
Kendall Walden,125,Submasters 34-39,34-39,M,,,,,,,247.5,,,,,,247.5,B,Multi-ply,2
Bob Vessels,125,Submasters 34-39,34-39,M,,,,,,,227.5,,,,,,227.5,B,Multi-ply,3
William Pontius,125,Submasters 34-39,34-39,M,,,,,,,192.5,,,,,,192.5,B,Multi-ply,4
Steve Khader,125,Submasters 34-39,34-39,M,,,,,,,170,,,,,,170,B,Multi-ply,5
Jim Cunningham,140,Submasters 34-39,34-39,M,,,,,,,275,,,,,,275,B,Multi-ply,1
Julian Erevia,140,Submasters 34-39,34-39,M,,,,,,,210,,,,,,210,B,Multi-ply,2
Jon Wooner,140,Submasters 34-39,34-39,M,,,,,,,210,,,,,,210,B,Multi-ply,3
Malcolm Ahlo Jr,140,Submasters 34-39,34-39,M,,,,,,,,,,,,,,B,Multi-ply,DQ
Thomas McKinney #1,140+,Submasters 34-39,34-39,M,,,,,,,227.5,,,,,,227.5,B,Multi-ply,1
George Niualiku,140+,Submasters 34-39,34-39,M,,,,,,,200,,,,,,200,B,Multi-ply,2
Rany Shepard,140+,Submasters 34-39,34-39,M,,,,,,,,,,,,,,B,Multi-ply,DQ
Johnny Hernandez Jr,48,Teen 13-15,13-15,M,,,,,,,45,,,,,,45,B,Multi-ply,1
Rocky Hernandez,52,Teen 13-15,13-15,M,,,,,,,37.5,,,,,,37.5,B,Multi-ply,1
Jesse Chavez,56,Teen 13-15,13-15,M,,,,,,,85,,,,,,85,B,Multi-ply,1
Clayton Pinson,56,Teen 13-15,13-15,M,,,,,,,52.5,,,,,,52.5,B,Multi-ply,2
Hayward Blake,67.5,Teen 13-15,13-15,M,,15,,,,115,115,120,,,,,115,B,Multi-ply,1
Michael Enloe,67.5,Teen 13-15,13-15,M,,,,,,,77.5,,,,,,77.5,B,Multi-ply,2
Andy Munsey,67.5,Teen 13-15,13-15,M,,,,,,,57.5,,,,,,57.5,B,Multi-ply,3
Adam Contreras #1,67.5,Teen 13-15,13-15,M,,,,,,,45,,,,,,45,B,Multi-ply,4
Michael Minahan,75,Teen 13-15,13-15,M,,,,,,,92.5,,,,,,92.5,B,Multi-ply,1
Keenan Browne,100,Teen 13-15,13-15,M,,,,,,,77.5,,,,,,77.5,B,Multi-ply,1
Nick Heppner,110,Teen 13-15,13-15,M,,15,,,,,142.5,,,,,,142.5,B,Multi-ply,1
Brandon Weston,125,Teen 13-15,13-15,M,,,,,,,115,,,,,,115,B,Multi-ply,1
Stefen Hudson,48,Teen 16-19,16-19,M,,,,,,,37.5,,,,,,37.5,B,Multi-ply,1
Gary Remiticado,60,Teen 16-19,16-19,M,,,,,,,112.5,,,,,,112.5,B,Multi-ply,1
Adam Parker,67.5,Teen 16-19,16-19,M,,,,,,,130,,,,,,130,B,Multi-ply,1
Travis Godawa,67.5,Teen 16-19,16-19,M,,,,,,,112.5,,,,,,112.5,B,Multi-ply,2
Herbie Allen,67.5,Teen 16-19,16-19,M,,,,,,,45,,,,,,45,B,Multi-ply,3
Luke Bevill,75,Teen 16-19,16-19,M,,,,,,,140,,,,,,140,B,Multi-ply,1
Jesse Kim,75,Teen 16-19,16-19,M,,,,,,,102.5,,,,,,102.5,B,Multi-ply,2
Anthony Palombo,82.5,Teen 16-19,16-19,M,,,,,,,160,,,,,,160,B,Multi-ply,1
Ryan Ford,82.5,Teen 16-19,16-19,M,,,,,,,80,,,,,,80,B,Multi-ply,2
Phil Davi,90,Teen 16-19,16-19,M,,19,,,,,185,,,,,,185,B,Multi-ply,1
Scott Hoffman,90,Teen 16-19,16-19,M,,,,,,,130,,,,,,130,B,Multi-ply,2
Daniel Puder,100,Teen 16-19,16-19,M,,,,,,,112.5,,,,,,112.5,B,Multi-ply,1
DeShaun Milliken,125,Teen 16-19,16-19,M,,17,,,,,187.5,,,,,,187.5,B,Multi-ply,1
Jordan Cam,125,Teen 16-19,16-19,M,,16,,,,,185,,,,,,185,B,Multi-ply,2
Lee Taylor,125,Teen 16-19,16-19,M,,,,,,,122.5,,,,,,122.5,B,Multi-ply,3
Scott McDaniel,140+,Teen 16-19,16-19,M,,,,,,,182.5,,,,,,182.5,B,Multi-ply,1
Glenn Murphy,56,Masters 40-46,40-46,M,,,,,,,95,100,,,,,95,B,Multi-ply,1
Allen Young,60,Masters 40-46,40-46,M,,,,,,,135,,,,,,135,B,Multi-ply,1
Sheldon Weingust,67.5,Masters 40-46,40-46,M,,,,,,,165,,,,,,165,B,Multi-ply,1
Clyde Higa,75,Masters 40-46,40-46,M,,,,,,,177.5,,,,,,177.5,B,Multi-ply,1
Dan Marxheimer,75,Masters 40-46,40-46,M,,,,,,,162.5,,,,,,162.5,B,Multi-ply,2
Richard Davidson #2,75,Masters 40-46,40-46,M,,,,,,,107.5,,,,,,107.5,B,Multi-ply,3
Jeff Jones,82.5,Masters 40-46,40-46,M,,,,,,,182.5,,,,,,182.5,B,Multi-ply,1
Bill Cox,82.5,Masters 40-46,40-46,M,,,,,,,165,,,,,,165,B,Multi-ply,2
Franchisco Ventilari,82.5,Masters 40-46,40-46,M,Brazil,,,,,,130,,,,,,130,B,Multi-ply,3
George Herring #1,90,Masters 40-46,40-46,M,,,,,,,242.5,,,,,,242.5,B,Multi-ply,1
Darris Piggee,90,Masters 40-46,40-46,M,,,,,,,220,,,,,,220,B,Multi-ply,2
Byron Beebe,90,Masters 40-46,40-46,M,,,,,,,220,,,,,,220,B,Multi-ply,3
Keith Kanemoto,90,Masters 40-46,40-46,M,,,,,,,197.5,,,,,,197.5,B,Multi-ply,4
Bruce Hines,90,Masters 40-46,40-46,M,,,,,,,165,,,,,,165,B,Multi-ply,5
Paul Radmilovich,90,Masters 40-46,40-46,M,,,,,,,152.5,,,,,,152.5,B,Multi-ply,6
Ken Wilson,90,Masters 40-46,40-46,M,,,,,,,120,,,,,,120,B,Multi-ply,7
David Callas,100,Masters 40-46,40-46,M,,,,,,,152.5,,,,,,152.5,B,Multi-ply,1
Arthur Thompson Jr,110,Masters 40-46,40-46,M,,,,,,,245,,,,,,245,B,Multi-ply,1
Doug Mulder,110,Masters 40-46,40-46,M,,,,,,,217.5,,,,,,217.5,B,Multi-ply,2
Mike Lutz,110,Masters 40-46,40-46,M,,,,,,,205,,,,,,205,B,Multi-ply,3
Joe Harms,110,Masters 40-46,40-46,M,,,,,,,200,,,,,,200,B,Multi-ply,4
Arthur Clayton,110,Masters 40-46,40-46,M,,,,,,,182.5,,,,,,182.5,B,Multi-ply,5
Mike Moore #2,110,Masters 40-46,40-46,M,,,,,,,170,,,,,,170,B,Multi-ply,6
Gary Stevens,110,Masters 40-46,40-46,M,,,,,,,130,,,,,,130,B,Multi-ply,7
Phil Andrews,125,Masters 40-46,40-46,M,,46,,,,,237.5,,,,,,237.5,B,Multi-ply,1
Carroll Moon,125,Masters 40-46,40-46,M,,,,,,,235,237.5,,,,,235,B,Multi-ply,2
Don Frosland Jr,125,Masters 40-46,40-46,M,,,,,,,225,232.5,,,,,225,B,Multi-ply,3
Kurt Sacher,125,Masters 40-46,40-46,M,,,,,,,215,,,,,,215,B,Multi-ply,4
Johann Hofmeister,125,Masters 40-46,40-46,M,Germany,,,,,,210,,,,,,210,B,Multi-ply,5
Mario Ceccarelli,125,Masters 40-46,40-46,M,,,,,,,205,,,,,,205,B,Multi-ply,6
Tom DiFilippi,125,Masters 40-46,40-46,M,,,,,,,110,,,,,,110,B,Multi-ply,7
R. Sanchez,125,Masters 40-46,40-46,M,,,,,,,,,,,,,,B,Multi-ply,DQ
Bill Gillespie,140,Masters 40-46,40-46,M,,,,277.5,290,-295,290,-295,,,,,290,B,Multi-ply,1
Tom Manno,140,Masters 40-46,40-46,M,,,,277.5,-288,-288,277.5,,,,,,277.5,B,Multi-ply,2
Gary Brower,140,Masters 40-46,40-46,M,,,,,,,210,,,,,,210,B,Multi-ply,3
Paul Ratsch,140,Masters 40-46,40-46,M,,,,,,,197.5,,,,,,197.5,B,Multi-ply,4
Corey Huwe,140,Masters 40-46,40-46,M,,,,,,,182.5,,,,,,182.5,B,Multi-ply,5
Art Ramsey,140+,Masters 40-46,40-46,M,,,,,,,250,,,,,,250,B,Multi-ply,1
Randy Young,140+,Masters 40-46,40-46,M,,,,,,,235,,,,,,235,B,Multi-ply,2
David Chase,140+,Masters 40-46,40-46,M,,,,,,,207.5,,,,,,207.5,B,Multi-ply,3
Brian Rehberg,140+,Masters 40-46,40-46,M,,,,,,,200,,,,,,200,B,Multi-ply,4
Homi Shivaie,60,Masters 47-53,47-53,M,,,,,,,87.5,,,,,,87.5,B,Multi-ply,1
John Tyree,75,Masters 47-53,47-53,M,,,,,,,165,,,,,,165,B,Multi-ply,1
Leonard McAllister,82.5,Masters 47-53,47-53,M,,,,,,,190,,,,,,190,B,Multi-ply,1
Richard Hagedorn,82.5,Masters 47-53,47-53,M,,,,,,,152.5,,,,,,152.5,B,Multi-ply,2
Dan Bell,82.5,Masters 47-53,47-53,M,,,,,,,140,,,,,,140,B,Multi-ply,3
Gene Alexander,82.5,Masters 47-53,47-53,M,,,,,,,137.5,,,,,,137.5,B,Multi-ply,4
Mick Stevens,82.5,Masters 47-53,47-53,M,,,,,,,130,,,,,,130,B,Multi-ply,5
Warren Orbaugh,90,Masters 47-53,47-53,M,,,,,,,182.5,,,,,,182.5,B,Multi-ply,1
Emmanuel Howard,90,Masters 47-53,47-53,M,,,,,,,175,,,,,,175,B,Multi-ply,2
Rainer Gessmann,90,Masters 47-53,47-53,M,Germany,,,,,,160,,,,,,160,B,Multi-ply,3
Nick Santora,90,Masters 47-53,47-53,M,,,,,,,142.5,,,,,,142.5,B,Multi-ply,4
Sean Finegan,100,Masters 47-53,47-53,M,,,,,,,192.5,,,,,,192.5,B,Multi-ply,1
Ronnie Edwards,100,Masters 47-53,47-53,M,,,,,,,175,,,,,,175,B,Multi-ply,2
Richard Dunn,100,Masters 47-53,47-53,M,,,,,,,152.5,,,,,,152.5,B,Multi-ply,3
DJ Jamerson,100,Masters 47-53,47-53,M,,,,,,,137.5,,,,,,137.5,B,Multi-ply,4
Harold Barett,100,Masters 47-53,47-53,M,,,,,,,110,,,,,,110,B,Multi-ply,5
Steve Ramey,100,Masters 47-53,47-53,M,,,,,,,,,,,,,,B,Multi-ply,DQ
Fred Kendell,110,Masters 47-53,47-53,M,,,,,,,190,,,,,,190,B,Multi-ply,1
Bennie Dooley,125,Masters 47-53,47-53,M,,,,,,,220,,,,,,220,B,Multi-ply,1
Colin Bonneau,125,Masters 47-53,47-53,M,Canada,,,,,,190,,,,,,190,B,Multi-ply,2
Austin Webb,125,Masters 47-53,47-53,M,,,,,,,187.5,,,,,,187.5,B,Multi-ply,3
Tom Ekenberg,125,Masters 47-53,47-53,M,,,,,,,162.5,,,,,,162.5,B,Multi-ply,4
Eddie McConnell,125,Masters 47-53,47-53,M,,,,,,,142.5,,,,,,142.5,B,Multi-ply,5
Randy Patterson,140,Masters 47-53,47-53,M,,51,,,240,-250,240,,,,,,240,B,Multi-ply,1
David McCreary,140,Masters 47-53,47-53,M,,,,,,,200,,,,,,200,B,Multi-ply,2
Obbie Hampton,140,Masters 47-53,47-53,M,,,,,,,160,,,,,,160,B,Multi-ply,3
Carl Rosborough,140+,Masters 47-53,47-53,M,,,,,,,205,,,,,,205,B,Multi-ply,1
Leo Contreras,140+,Masters 47-53,47-53,M,,,,,,,195,,,,,,195,B,Multi-ply,2
Keith Ward,140+,Masters 47-53,47-53,M,,,,,,,180,,,,,,180,B,Raw,3
Bill Lobins,140+,Masters 47-53,47-53,M,,,,,,,,,,,,,,B,Multi-ply,DQ
Larry Cardon,75,Masters 54-60,54-60,M,,,,,,,157.5,160,,,,,157.5,B,Multi-ply,1
Moses Timbal,75,Masters 54-60,54-60,M,,,,,,,137.5,,,,,,137.5,B,Multi-ply,2
Christian Brenol,75,Masters 54-60,54-60,M,France,,,,,,100,,,,,,100,B,Multi-ply,3
Mitch Sperling,82.5,Masters 54-60,54-60,M,,,,,,,147.5,,,,,,147.5,B,Multi-ply,1
Ritchie Creevy,82.5,Masters 54-60,54-60,M,,,,,,,142.5,,,,,,142.5,B,Multi-ply,2
Jerry McCamman,82.5,Masters 54-60,54-60,M,,,,,,,137.5,,,,,,137.5,B,Multi-ply,3
Don Covello,82.5,Masters 54-60,54-60,M,,,,,,,117.5,,,,,,117.5,B,Multi-ply,4
Ron Matheson,90,Masters 54-60,54-60,M,,,,,,,175,,,,,,175,B,Multi-ply,1
Rich Tsutsui,90,Masters 54-60,54-60,M,,,,,,,170,,,,,,170,B,Multi-ply,2
Terry Camp,90,Masters 54-60,54-60,M,,,,,,,157.5,,,,,,157.5,B,Multi-ply,3
Olício dos Santos Filho,90,Masters 54-60,54-60,M,Brazil,56,,,,,147.5,,,,,,147.5,B,Multi-ply,4
Gerard Larue,90,Masters 54-60,54-60,M,France,,,,,,147.5,,,,,,147.5,B,Multi-ply,5
L. Hilger,90,Masters 54-60,54-60,M,,,,,,,145,,,,,,145,B,Multi-ply,6
Godfrey Holzinger,90,Masters 54-60,54-60,M,,,,,,,135,,,,,,135,B,Multi-ply,7
Bill Sekermestrovich,100,Masters 54-60,54-60,M,,,,,,,200,,,,,,200,B,Multi-ply,1
Toe Preston,100,Masters 54-60,54-60,M,,,,,,,167.5,,,,,,167.5,B,Multi-ply,2
Jon Paggett,100,Masters 54-60,54-60,M,,,,,,,165,,,,,,165,B,Multi-ply,3
Skip Hall,100,Masters 54-60,54-60,M,,,,,,,102.5,,,,,,102.5,B,Multi-ply,4
Daniel Smith III,110,Masters 54-60,54-60,M,,,,,,,190,,,,,,190,B,Multi-ply,1
Dennis Cone,110,Masters 54-60,54-60,M,,,,,,,162.5,,,,,,162.5,B,Multi-ply,2
Terry Bunce,110,Masters 54-60,54-60,M,,,,,,,150,,,,,,150,B,Multi-ply,3
Jimmy Duckett,110,Masters 54-60,54-60,M,,,,,,,115,,,,,,115,B,Multi-ply,4
George Nelson,125,Masters 54-60,54-60,M,,56,117.93,-255,267.5,-277.5,267.5,,,,,,267.5,B,Multi-ply,1
Pedro Velazco,125,Masters 54-60,54-60,M,Guatemala,,,,,,187.5,,,,,,187.5,B,Multi-ply,2
Thomas Lucas,125,Masters 54-60,54-60,M,,,,,,,120,,,,,,120,B,Multi-ply,3
Robert O. Smith,140,Masters 54-60,54-60,M,Canada,,,,,,197.5,,,,,,197.5,B,Multi-ply,1
Donald James,140+,Masters 54-60,54-60,M,,,,,,,200,,,,,,200,B,Multi-ply,1
Precious McKenzie,60,Masters 61-67,61-67,M,,64,,,,,115,,,,,,115,B,Raw,1
Lindy Blas,67.5,Masters 61-67,61-67,M,,,,,,,100,,,,,,100,B,Multi-ply,1
Richard Gidcumb,67.5,Masters 61-67,61-67,M,,,,,,,100,,,,,,100,B,Multi-ply,2
George Johnson,75,Masters 61-67,61-67,M,,,,,,,147.5,151,,,,,147.5,B,Multi-ply,1
Hans Nägerl,75,Masters 61-67,61-67,M,Germany,,,,,,135,,,,,,135,B,Multi-ply,2
Richard Abbott,75,Masters 61-67,61-67,M,,,,,,,102.5,,,,,,102.5,B,Multi-ply,3
Rudy Lozano,82.5,Masters 61-67,61-67,M,,,,,,,152.5,153,,,,,152.5,B,Multi-ply,1
Jerry Gladson,82.5,Masters 61-67,61-67,M,,,,,,,110,,,,,,110,B,Multi-ply,2
Pete Wilson,90,Masters 61-67,61-67,M,,,,,,,152.5,,,,,,152.5,B,Multi-ply,1
Bernie Miller,90,Masters 61-67,61-67,M,,,,,,,137.5,,,,,,137.5,B,Multi-ply,2
Harold Smith,100,Masters 61-67,61-67,M,,,,,,,145,,,,,,145,B,Multi-ply,1
Richard Yoshida,100,Masters 61-67,61-67,M,,,,,,,122.5,,,,,,122.5,B,Multi-ply,2
Ken Anderson,110,Masters 61-67,61-67,M,,,,,,,182.5,190,,,,,182.5,B,Multi-ply,1
Omar Bruce,110,Masters 61-67,61-67,M,,,,,,,142.5,,,,,,142.5,B,Multi-ply,2
David Johnson,125,Masters 61-67,61-67,M,,,,,,,172.5,,,,,,172.5,B,Multi-ply,1
JP Krachunis,140,Masters 61-67,61-67,M,,,,,,,160,,,,,,160,B,Multi-ply,1
Gary Johnson Sr,140,Masters 61-67,61-67,M,,,,,,,137.5,,,,,,137.5,B,Multi-ply,2
Jim Schall,75,Masters 68-74,68-74,M,,,,,,,92.5,,,,,,92.5,B,Multi-ply,1
Kiyoshi Koki,82.5,Masters 68-74,68-74,M,,,,,,,152.5,,,,,,152.5,B,Multi-ply,1
Ross Phillips,82.5,Masters 68-74,68-74,M,,,,,,,110,,,,,,110,B,Multi-ply,2
Joe Cantu,90,Masters 68-74,68-74,M,,70,,,,,170,175,,,,,170,B,Multi-ply,1
Sonny Ronolo,75,Masters 75-79,75-79,M,,78,,,,,145,,,,,,145,B,Multi-ply,1
Donald Dreyer,82.5,Masters 75-79,75-79,M,,79,,,,,65,,,,,,65,B,Multi-ply,1
Otis Whitehead,90,Masters 75-79,75-79,M,,,,,,,100,,,,,,100,B,Multi-ply,1
Victor Starkel,110,Masters 75-79,75-79,M,,77,,,,,132.5,,,,,,132.5,B,Multi-ply,1
Jack Heizelman,67.5,Masters 80-84,80-84,M,,83,,,,,80,,,,,,80,B,Multi-ply,1
Oscar Martinez,60,Class 1,,M,,,,,,,127.5,,,,,,127.5,B,Multi-ply,1
Donny Engles,67.5,Class 1,,M,,,,,,,142.5,,,,,,142.5,B,Multi-ply,1
Jon Shapiro,67.5,Class 1,,M,,,,,,,130,,,,,,130,B,Multi-ply,2
Joseph Withers,75,Class 1,,M,,,,,,,170,,,,,,170,B,Multi-ply,1
Lee Luther,75,Class 1,,M,,,,,,,160,,,,,,160,B,Multi-ply,2
Steve Hauger,75,Class 1,,M,,,,,,,157.5,,,,,,157.5,B,Multi-ply,3
Eric Kuskie,75,Class 1,,M,,,,,,,157.5,,,,,,157.5,B,Multi-ply,4
Brian Ridolfi,75,Class 1,,M,,,,,,,140,,,,,,140,B,Multi-ply,5
Luke Bevill,75,Class 1,,M,,,,,,,137.5,,,,,,137.5,B,Multi-ply,6
Joe Ojeda,75,Class 1,,M,,,,,,,135,,,,,,135,B,Multi-ply,7
A. Rerellana,75,Class 1,,M,,,,,,,,,,,,,,B,Multi-ply,DQ
Jayce Picking,82.5,Class 1,,M,,,,,,,172.5,,,,,,172.5,B,Multi-ply,1
Kirk Nakamura,82.5,Class 1,,M,,,,,,,172.5,,,,,,172.5,B,Multi-ply,2
Jake Thomas,82.5,Class 1,,M,,,,,,,150,,,,,,150,B,Multi-ply,3
Michael Rainey,82.5,Class 1,,M,,,,,,,147.5,,,,,,147.5,B,Multi-ply,4
Todd Birkhead,82.5,Class 1,,M,,,,,,,122.5,,,,,,122.5,B,Multi-ply,5
Steve Ughe,90,Class 1,,M,,,,,,,170,,,,,,170,B,Multi-ply,1
Troy Charley,100,Class 1,,M,,,,,,,182.5,,,,,,182.5,B,Multi-ply,1
Ronnie Edwards,100,Class 1,,M,,,,,,,175,,,,,,175,B,Multi-ply,2
James Hutchings,100,Class 1,,M,,,,,,,167.5,,,,,,167.5,B,Multi-ply,3
Joshua Schrag,100,Class 1,,M,,,,,,,165,,,,,,165,B,Multi-ply,4
Joe LaSalle,100,Class 1,,M,,,,,,,165,,,,,,165,B,Multi-ply,5
Richard Dunn,100,Class 1,,M,,,,,,,152.5,,,,,,152.5,B,Multi-ply,6
David Callas,100,Class 1,,M,,,,,,,152.5,,,,,,152.5,B,Multi-ply,7
Doug Mulder,110,Class 1,,M,,,,,,,217.5,,,,,,217.5,B,Multi-ply,1
Mike Lutz,110,Class 1,,M,,,,,,,205,,,,,,205,B,Multi-ply,2
Mike Smyser,110,Class 1,,M,,,,,,,182.5,,,,,,182.5,B,Multi-ply,3
James Mozingo,110,Class 1,,M,,,,,,,182.5,,,,,,182.5,B,Multi-ply,4
Darryl Ng,125,Class 1,,M,,,,,,,205,,,,,,205,B,Multi-ply,1
Mike Camlin,125,Class 1,,M,,,,,,,205,,,,,,205,B,Multi-ply,2
William Pontius,125,Class 1,,M,,,,,,,192.5,,,,,,192.5,B,Multi-ply,3
Greg Ramsdell,125,Class 1,,M,,,,,,,177.5,,,,,,177.5,B,Multi-ply,4
Tom Ekenberg,125,Class 1,,M,,,,,,,162.5,,,,,,162.5,B,Multi-ply,5
Julian Erevia,140,Class 1,,M,,,,,,,210,,,,,,210,B,Multi-ply,1
Gary Brower,140,Class 1,,M,,,,,,,210,,,,,,210,B,Multi-ply,2
Bruce Sabin,140,Class 1,,M,,,,,,,205,,,,,,205,B,Multi-ply,3
Corey Huwe,140,Class 1,,M,,,,,,,182.5,,,,,,182.5,B,Multi-ply,4
David Chase,140+,Class 1,,M,,,,,,,207.5,,,,,,207.5,B,Multi-ply,1
Leo Contreras,140+,Class 1,,M,,,,,,,195,,,,,,195,B,Multi-ply,2
Bob Bish,75,Law/Fire Open,,M,,,,,,,160,,,,,,160,B,Multi-ply,1
Eric Kuskie,75,Law/Fire Open,,M,,,,,,,157.5,,,,,,157.5,B,Multi-ply,2
Joe Sermeno,75,Law/Fire Open,,M,,,,,,,137.5,,,,,,137.5,B,Multi-ply,3
Kirk Nakamura,82.5,Law/Fire Open,,M,,,,,,,172.5,,,,,,172.5,B,Multi-ply,1
Richard McKeefer,82.5,Law/Fire Open,,M,,,,,,,162.5,,,,,,162.5,B,Multi-ply,2
Craig Bowen,100,Law/Fire Open,,M,,,,,,,187.5,,,,,,187.5,B,Multi-ply,1
Sunday Sims II,110,Law/Fire Open,,M,,,,,,,210,,,,,,210,B,Multi-ply,1
Steve Ross,110,Law/Fire Open,,M,,,,,,,197.5,,,,,,197.5,B,Multi-ply,2
Mike Smyser,110,Law/Fire Open,,M,,,,,,,182.5,,,,,,182.5,B,Multi-ply,3
Keith Wilkerson,110,Law/Fire Open,,M,,,,,,,182.5,,,,,,182.5,B,Multi-ply,4
Frank Wakakuwa,125,Law/Fire Open,,M,,,114.31,,,-295,272.5,,,,,,272.5,B,Multi-ply,1
Mike Camlin,125,Law/Fire Open,,M,,,,,,,205,,,,,,205,B,Multi-ply,2
Walt Faulkner,125,Law/Fire Open,,M,,,,,,,185,,,,,,185,B,Multi-ply,3
Malcolm Ahlo Jr,140,Law/Fire Open,,M,,,,,,,227.5,,,,,,227.5,B,Multi-ply,1
Mark Ned,140+,Law/Fire Open,,M,,,,,290,-317.5,290,,,,,,290,B,Multi-ply,1
Tony Lualemaga,140+,Law/Fire Open,,M,,,205.02,,260,-272.5,260,,,,,,260,B,Raw,2
Bob Bish,75,Law/Fire Submasters 34-39,34-39,M,,,,,,,160,,,,,,160,B,Multi-ply,1
AJ Agamao,82.5,Law/Fire Submasters 34-39,34-39,M,,,,,,,195,202.5,,,,,195,B,Multi-ply,1
Ed Sim,90,Law/Fire Submasters 34-39,34-39,M,,,,,,,212.5,,,,,,212.5,B,Multi-ply,1
Jason Jackson #7,100,Law/Fire Submasters 34-39,34-39,M,,,,,,,247.5,,,,,,247.5,B,Multi-ply,1
Kenneth Millrany,100,Law/Fire Submasters 34-39,34-39,M,,,,,,,197.5,,,,,,197.5,B,Multi-ply,2
Craig Bowen,100,Law/Fire Submasters 34-39,34-39,M,,,,,,,187.5,,,,,,187.5,B,Multi-ply,3
Jaime Tovar,125,Law/Fire Submasters 34-39,34-39,M,,,,,,,212.5,217.5,,,,,212.5,B,Multi-ply,1
Darryl Ng,125,Law/Fire Submasters 34-39,34-39,M,,,,,,,205,,,,,,205,B,Multi-ply,2
Frederick Nelson,140,Law/Fire Submasters 34-39,34-39,M,,,,205,-215,-215,205,,,,,,205,B,Multi-ply,1
Joe Sermeno,75,Law/Fire Masters 40-47,40-47,M,,,,,,,137.5,,,,,,137.5,B,Multi-ply,1
Robert Straker,75,Law/Fire Masters 40-47,40-47,M,,,,,,,85,,,,,,85,B,Multi-ply,2
Michael Godawa,90,Law/Fire Masters 40-47,40-47,M,,,,,,,160,,,,,,160,B,Multi-ply,1
Mike McKenzie,100,Law/Fire Masters 40-47,40-47,M,,,,,,,200,,,,,,200,B,Multi-ply,1
Jeff Allen Jones,100,Law/Fire Masters 40-47,40-47,M,,,,,,,170,,,,,,170,B,Multi-ply,2
Arthur Clayton,110,Law/Fire Masters 40-47,40-47,M,,,,,,,182.5,,,,,,182.5,B,Multi-ply,1
Walt Faulkner,125,Law/Fire Masters 40-47,40-47,M,,,,,,,185,,,,,,185,B,Multi-ply,1
John Minahan,140,Law/Fire Masters 40-47,40-47,M,,,,,,,227.5,232.5,,,,,227.5,B,Multi-ply,1
Bruce Sabin,140,Law/Fire Masters 40-47,40-47,M,,,,,,,205,,,,,,205,B,Multi-ply,2
Emmanuel Howard,90,Law/Fire Masters 48+,48-999,M,,,,,,,175,,,,,,175,B,Multi-ply,1
Patrick Fay,100,Law/Fire Masters 48+,48-999,M,,,,,,,152.5,,,,,,152.5,B,Multi-ply,1
Jeff Rhyne,100,Law/Fire Masters 48+,48-999,M,,,,,,,125,,,,,,125,B,Multi-ply,2
Ron Hood,125,Law/Fire Masters 48+,48-999,M,,55,,,240,-245,240,,,,,,240,B,Multi-ply,1
Pedro Velazco,125,Law/Fire Masters 48+,48-999,M,Guatemala,,,,,,187.5,,,,,,187.5,B,Multi-ply,2
Randy Patterson,140,Law/Fire Masters 48+,48-999,M,,51,,,240,-250,240,,,,,,240,B,Multi-ply,1
Bill Lobins,140+,Law/Fire Masters 48+,48-999,M,,,,,,,217.5,,,,,,217.5,B,Multi-ply,1
Vickie McNeely,48,Open,,F,,,,,,,55,,,,,,55,B,Multi-ply,1
Carmela Baqui,48,Open,,F,,,,,,,55,,,,,,55,B,Multi-ply,2
Mary Pederson,48,Open,,F,,,,,,,40,,,,,,40,B,Multi-ply,3
Valerie Tyree,52,Open,,F,,,,,,,92.5,,,,,,92.5,B,Multi-ply,1
E. Avillanoza,52,Open,,F,,,,,,,62.5,,,,,,62.5,B,Multi-ply,2
Jill Remiticado,56,Open,,F,,18,,,,,90,92.5,,,,,90,B,Multi-ply,1
Beth Higginbotham,56,Open,,F,,,,,,,60,,,,,,60,B,Multi-ply,2
Jerri-Lynn Lippert,60,Open,,F,,,,,,,137.5,142.5,,,,,137.5,B,Multi-ply,1
Judy Rodriguez,60,Open,,F,,,,,,,72.5,,,,,,72.5,B,Multi-ply,2
Azure Skellington,60,Open,,F,,,,,,,65,,,,,,65,B,Multi-ply,3
A. Ferschwyler,60,Open,,F,,,,,,,62.5,,,,,,62.5,B,Multi-ply,4
Katy Haller,67.5,Open,,F,,,,,,,102.5,,,,,,102.5,B,Multi-ply,1
Suzanne Williams,67.5,Open,,F,,,,,,,70,,,,,,70,B,Multi-ply,2
Cindy Cameron,67.5,Open,,F,,,,,,,67.5,,,,,,67.5,B,Multi-ply,3
Linda Blackburn,75,Open,,F,,,,,,,135,,,,,,135,B,Multi-ply,1
Mary Jacobson,75,Open,,F,,45,,,,,112.5,,,,,,112.5,B,Multi-ply,2
Mariam Power,75,Open,,F,Canada,25,,,,,110,,,,,,110,B,Multi-ply,3
Gina Anderson,75,Open,,F,,,,,,,102.5,,,,,,102.5,B,Multi-ply,4
Linette Vasquez,75,Open,,F,,,,,,,92.5,,,,,,92.5,B,Multi-ply,5
Betty Ann Heriford,75,Open,,F,,,,,,,82.5,,,,,,82.5,B,Multi-ply,6
S. Lonn,90,Open,,F,,,,,,,115,,,,,,115,B,Multi-ply,1
Kimberly Pitts,90+,Open,,F,,,,,,,147.5,152.5,,,,,147.5,B,Multi-ply,1
Tamara Coulombe,52,Juniors 20-25,20-25,F,,,,,,,77.5,,,,,,77.5,B,Multi-ply,1
Donna Gagliardi,52,Juniors 20-25,20-25,F,,,,,,,70,,,,,,70,B,Multi-ply,2
Beth Higginbotham,56,Juniors 20-25,20-25,F,,,,,,,60,,,,,,60,B,Multi-ply,1
Erin Moore,60,Juniors 20-25,20-25,F,,,,,,,60,,,,,,60,B,Multi-ply,1
Rebecca Plant,75,Juniors 20-25,20-25,F,,,,,,,102.5,,,,,,102.5,B,Multi-ply,1
Vicki Paton,48,Submasters 34-39,34-39,F,,,,,,,57.5,,,,,,57.5,B,Multi-ply,1
Julie Green #2,56,Submasters 34-39,34-39,F,,,,,,,67.5,,,,,,67.5,B,Multi-ply,1
Jennifer Souders,60,Submasters 34-39,34-39,F,,,,,,,60,,,,,,60,B,Multi-ply,1
Katy Haller,67.5,Submasters 34-39,34-39,F,,,,,,,102.5,,,,,,102.5,B,Multi-ply,1
Susan Gall,67.5,Submasters 34-39,34-39,F,,,,,,,80,,,,,,80,B,Multi-ply,2
Cindy Wurdinger-Kelly,67.5,Submasters 34-39,34-39,F,,,,,,,77.5,,,,,,77.5,B,Multi-ply,3
Suzanne Williams,67.5,Submasters 34-39,34-39,F,,,,,,,70,,,,,,70,B,Multi-ply,4
Shannon Allen,82.5,Submasters 34-39,34-39,F,,,,,,,92.5,,,,,,92.5,B,Multi-ply,1
Taunya Malone,90+,Submasters 34-39,34-39,F,,,,,,,142.5,,,,,,142.5,B,Multi-ply,1
Jan Morales,90+,Submasters 34-39,34-39,F,Brazil,,,,,,45,,,,,,45,B,Multi-ply,2
Lisa Garcia,44,Teen 13-15,13-15,F,,,,,,,32.5,,,,,,32.5,B,Multi-ply,1
Emily Schneider #3,52,Teen 13-15,13-15,F,,,,,,,57.5,60,,,,,57.5,B,Multi-ply,1
Azure Skellington,60,Teen 13-15,13-15,F,,,,,,,65,,,,,,65,B,Multi-ply,1
Jill Remiticado,56,Teen 16-19,16-19,F,,18,,,,,90,92.5,,,,,90,B,Multi-ply,1
Julie Waltenbaugh,67.5,Teen 16-19,16-19,F,,,,,,,35,,,,,,35,B,Multi-ply,1
Rachel Malone,90+,Teen 16-19,16-19,F,,,,,,,77.5,,,,,,77.5,B,Multi-ply,1
Vickie McNeely,58,Masters 40-46,40-46,F,,,,,,,55,,,,,,55,B,Multi-ply,1
Carol Patterson,67,Masters 40-46,40-46,F,,45,55.34,,,,72.5,,,,,,72.5,B,Multi-ply,1
Sandy Gomez-Leon,70,Masters 40-46,40-46,F,,,,,,,102.5,,,,,,102.5,B,Multi-ply,1
Cindy Cameron,67.5,Masters 40-46,40-46,F,,,,,,,67.5,,,,,,67.5,B,Multi-ply,1
Mary Jacobson,75,Masters 40-46,40-46,F,,45,,,,,112.5,,,,,,112.5,B,Multi-ply,1
Laura Feusi,90,Masters 40-46,40-46,F,,,,,,,97.5,100,,,,,97.5,B,Multi-ply,1
Heidi Taubmann,56,Masters 47-53,47-53,F,,,,,,,77.5,,,,,,77.5,B,Multi-ply,1
Camellia Luprete,67.5,Masters 47-53,47-53,F,,,,,,,72.5,,,,,,72.5,B,Multi-ply,1
Betty Ann Heriford,75,Masters 47-53,47-53,F,,,,,,,82.5,,,,,,82.5,B,Multi-ply,1
Georgianna Ramey,75,Masters 47-53,47-53,F,,,,,,,70,,,,,,70,B,Multi-ply,2
Cathy Chapman,75,Masters 47-53,47-53,F,,,,,,,52.5,,,,,,52.5,B,Multi-ply,3
Gloria Camp,56,Masters 54-60,54-60,F,,,,,,,57.5,,,,,,57.5,B,Multi-ply,1
Joyce Hamblin,82.5,Masters 54-60,54-60,F,,,,,,,82.5,85,,,,,82.5,B,Multi-ply,1
Marcia Turner,67.5,Masters 61-67,61-67,F,,,,,,,52.5,,,,,,52.5,B,Multi-ply,1
Grace Cloninger,75,Masters 61-67,61-67,F,,65,,,,,52.5,,,,,,52.5,B,Multi-ply,1
Kitty Gallagher,75,Masters 61-67,61-67,F,,,,,,,50,,,,,,50,B,Multi-ply,2
Gloria Mighell,90,Masters 68-74,68-74,F,,73,,,,,45,,,,,,45,B,Multi-ply,1
Gloria Tomlin,67.5,Masters 75-79,75-79,F,,,,,,,40,,,,,,40,B,Multi-ply,1
Linda Blackburn,75,Law/Fire Submasters 34-39,34-39,F,,,,,,,135,,,,,,135,B,Multi-ply,1
Camellia Luprete,67.5,Law/Fire Masters 48+,48-999,F,,,,,,,72.5,,,,,,72.5,B,Multi-ply,1
Herbeth Garcia,56,Open,,M,Guatemala,,,,,,,,,,182.5,,182.5,D,Single-ply,1
Oscar Martinez,60,Open,,M,,,,,,,,,,,192.5,,192.5,D,Single-ply,1
Monte Hokoana,67.5,Open,,M,,,,,,,,,,,250,,250,D,Single-ply,1
Ryan Snelling,67.5,Open,,M,,,,,,,,,,,240,,240,D,Single-ply,2
Richard Wideman,67.5,Open,,M,,,,,,,,,,,215,,215,D,Single-ply,3
Kimo Luna,67.5,Open,,M,,,,,,,,,,,207.5,,207.5,D,Single-ply,4
Richard Cirigliano,75,Open,,M,,,,,,,,,250,-262.5,250,,250,D,Single-ply,1
Christopher Grail,75,Open,,M,,,,,,,,,,,215,,215,D,Single-ply,2
Brian Ridolfi,75,Open,,M,,,,,,,,,,,212.5,,212.5,D,Single-ply,3
Tony Caprari,82.5,Open,,M,,,78.93,,,,,,,,320,,320,D,Single-ply,1
Richard House,82.5,Open,,M,,,,,,,,,,,265,,265,D,Single-ply,2
Josh Trewin,82.5,Open,,M,,,,,,,,,,,240,,240,D,Single-ply,3
Kirk Nakamura,82.5,Open,,M,,,,,,,,,,,235,,235,D,Single-ply,4
Nathan Turk,82.5,Open,,M,,,,,,,,,,,227.5,,227.5,D,Single-ply,5
Shawn Miller #1,82.5,Open,,M,,,,,,,,,,,220,,220,D,Single-ply,6
Anders Wahlund,90,Open,,M,Sweden,,,,,,,,,,280,,280,D,Single-ply,1
Phil Davi,90,Open,,M,,19,,,,,,,,,275,282.5,275,D,Single-ply,2
Willis McCoy,100,Open,,M,,,,,,,,,,,332.5,,332.5,D,Single-ply,1
Daniel Flunker,100,Open,,M,India,,,,,,,,,,267.5,,267.5,D,Single-ply,2
Parveen Khenna,100,Open,,M,,,,,,,,,,,200,,200,D,Single-ply,3
Brent Howard,110,Open,,M,,,,,,,,,,,337.5,,337.5,D,Single-ply,1
Jerry Capello,110,Open,,M,,,,,,,,,,,312.5,,312.5,D,Single-ply,2
Bobby Driskill,110,Open,,M,,,,,,,,,,,295,,295,D,Single-ply,3
Calvin Mock Jr,110,Open,,M,,,,,,,,,,,285,,285,D,Single-ply,4
David Glahn,110,Open,,M,,,,,,,,,,,272.5,,272.5,D,Single-ply,5
V. Garcia,110,Open,,M,,,,,,,,,,,227.5,,227.5,D,Single-ply,6
D. Robinson,110,Open,,M,,,,,,,,,,,,,,D,Single-ply,DQ
Phil Andrews,125,Open,,M,,46,,,,,,,,,367.5,,367.5,D,Single-ply,1
Bob Vessels,125,Open,,M,,,,,,,,,,,342.5,,342.5,D,Single-ply,2
Mike Camlin,125,Open,,M,,,,,,,,,,,335,,335,D,Single-ply,3
Steve Khader,125,Open,,M,,,,,,,,,,,250,,250,D,Single-ply,4
Pete Marcoff,125,Open,,M,,,,,,,,,,,240,,240,D,Single-ply,5
S. Sahola,125,Open,,M,,,,,,,,,,,,,,D,Single-ply,DQ
Rick Russell,140,Open,,M,,,,,,,,,,,307.5,,307.5,D,Single-ply,1
Deon Askanas,140,Open,,M,,,,,,,,,,,,,,D,Single-ply,DQ
Dean Munsey,140+,Open,,M,,,,,,,,,,,325,,325,D,Single-ply,1
Vincent Eldridge,140+,Open,,M,,,185.97,,,,,,,,322.5,,322.5,D,Single-ply,2
Keith Ward,140+,Open,,M,,,,,,,,,,,210,,210,D,Raw,3
Ryan Snelling,67.5,Juniors 20-25,20-25,M,,,,,,,,,,,240,,240,D,Single-ply,1
Patrick Schiffner,67.5,Juniors 20-25,20-25,M,Germany,,,,,,,,,,210,,210,D,Single-ply,2
S. Rabat,67.5,Juniors 20-25,20-25,M,,,,,,,,,,,207.5,,207.5,D,Single-ply,3
J. Castillo,67.5,Juniors 20-25,20-25,M,,,,,,,,,,,,,,D,Single-ply,DQ
Duane Travis,75,Juniors 20-25,20-25,M,,,,,,,,,,,272.5,,272.5,D,Single-ply,1
Christopher Grail,75,Juniors 20-25,20-25,M,,,,,,,,,,,215,,215,D,Single-ply,2
Michael Moore #4,75,Juniors 20-25,20-25,M,,,,,,,,,,,215,,215,D,Single-ply,3
Joe Ojeda,75,Juniors 20-25,20-25,M,,,,,,,,,,,205,,205,D,Single-ply,4
Gabe Ramos,75,Juniors 20-25,20-25,M,,,,,,,,,,,150,,150,D,Single-ply,5
Alex Woods,75,Juniors 20-25,20-25,M,,,,,,,,,,,130,,130,D,Single-ply,6
Tony Caprari,82.5,Juniors 20-25,20-25,M,,,78.93,,,,,,,,320,,320,D,Single-ply,1
Andrew Corson,82.5,Juniors 20-25,20-25,M,,,,,,,,,,,250,,250,D,Single-ply,2
Richard McKeefer,82.5,Juniors 20-25,20-25,M,,,,,,,,,,,227.5,,227.5,D,Single-ply,3
Steve McMillan,82.5,Juniors 20-25,20-25,M,,,,,,,,,,,187.5,,187.5,D,Single-ply,4
Ernie Mil-Homens,90,Juniors 20-25,20-25,M,Canada,,,,,,,,,,272.5,,272.5,D,Single-ply,1
Chad Matthews,90,Juniors 20-25,20-25,M,,,,,,,,,,,272.5,,272.5,D,Single-ply,2
Alexander Geitner,90,Juniors 20-25,20-25,M,Germany,,,,,,,,,,237.5,,237.5,D,Single-ply,3
Don Goldsworthy,100,Juniors 20-25,20-25,M,,,,,,,,,,,227.5,,227.5,D,Single-ply,1
Travis Osborne,110,Juniors 20-25,20-25,M,,,,,,,,,,,275,,275,D,Single-ply,1
Kevin Rose,110,Juniors 20-25,20-25,M,,,,,,,,,,,250,,250,D,Single-ply,2
Joel Thiessen,125,Juniors 20-25,20-25,M,Canada,,,,,,,,,,277.5,,277.5,D,Single-ply,1
Andrew Snider,125,Juniors 20-25,20-25,M,,,,,,,,,,,230,,230,D,Single-ply,2
Mark Freedman,67.5,Submasters 34-39,34-39,M,Canada,,,,,,,,,,217.5,,217.5,D,Single-ply,1
Richard Wideman,67.5,Submasters 34-39,34-39,M,,,,,,,,,,,215,,215,D,Single-ply,2
Joe Walker,67.5,Submasters 34-39,34-39,M,,,,,,,,,,,192.5,,192.5,D,Single-ply,3
Vilmar Oliveira,75,Submasters 34-39,34-39,M,Brazil,,,,,,,,,,200,,200,D,Single-ply,1
Johnny Hernandez,82.5,Submasters 34-39,34-39,M,,,,,,,,,,,237.5,,237.5,D,Single-ply,1
Nery del Cid,82.5,Submasters 34-39,34-39,M,Guatemala,,,,,,,,,,230,,230,D,Single-ply,2
Gordie Fraser,90,Submasters 34-39,34-39,M,,,,,,,,,,,245,,245,D,Single-ply,1
Jason Jackson #7,100,Submasters 34-39,34-39,M,,,,,,,,,,,272.5,,272.5,D,Single-ply,1
Daniel Flunker,100,Submasters 34-39,34-39,M,,,,,,,,,,,267.5,,267.5,D,Single-ply,2
Randy Etsell,100,Submasters 34-39,34-39,M,Canada,,,,,,,,,,260,,260,D,Single-ply,3
Rick Kornis,100,Submasters 34-39,34-39,M,,,,,,,,,,,227.5,,227.5,D,Single-ply,4
Joe Garcia,110,Submasters 34-39,34-39,M,,,,,,,,,,,227.5,,227.5,D,Single-ply,1
Bob Vessels,125,Submasters 34-39,34-39,M,,,,,,,,,,,342.5,,342.5,D,Single-ply,1
William Pontius,125,Submasters 34-39,34-39,M,,,,,,,,,,,260,,260,D,Single-ply,2
Leo Harju,125,Submasters 34-39,34-39,M,,,,,,,,,,,260,,260,D,Single-ply,3
Ron West,125,Submasters 34-39,34-39,M,,,,,,,,,,,250,,250,D,Single-ply,4
Steve Khader,125,Submasters 34-39,34-39,M,,,,,,,,,,,250,,250,D,Single-ply,5
Malcolm Ahlo Jr,140,Submasters 34-39,34-39,M,,,,,,,,,,,282.5,,282.5,D,Single-ply,1
Vincent Eldridge,140+,Submasters 34-39,34-39,M,,,185.97,,,,,,,,322.5,,322.5,D,Single-ply,1
SJ Taylor,140+,Submasters 34-39,34-39,M,,,,,,,,,,,287.5,,287.5,D,Single-ply,2
Brian Uyeoka,67.5,Masters 40-46,40-46,M,,,,,,,,,,,225,,225,D,Single-ply,1
Richard Cirigliano,75,Masters 40-46,40-46,M,,,,,,,,,250,-262.5,250,,250,D,Single-ply,1
E. Diaz,75,Masters 40-46,40-46,M,,,,,,,,,,,,,,D,Single-ply,DQ
Franchisco Ventilari,82.5,Masters 40-46,40-46,M,Brazil,,,,,,,,,,150,,150,D,Single-ply,1
Mark Bryant,90,Masters 40-46,40-46,M,,,,,,,,,,,220,,220,D,Single-ply,1
Ken Wilson,90,Masters 40-46,40-46,M,,,,,,,,,,,195,,195,D,Single-ply,2
Willis McCoy,100,Masters 40-46,40-46,M,,,,,,,,,,,332.5,,332.5,D,Single-ply,1
David Stratton,100,Masters 40-46,40-46,M,,,,,,,,,,,310,,310,D,Single-ply,2
David Rodgers,100,Masters 40-46,40-46,M,,,,,,,,,,,240,,240,D,Single-ply,3
Jerry Capello,110,Masters 40-46,40-46,M,,,,,,,,,,,312.5,,312.5,D,Single-ply,1
Bobby Driskill,110,Masters 40-46,40-46,M,,,,,,,,,,,295,,295,D,Single-ply,2
Duane Fuss,110,Masters 40-46,40-46,M,,,,,,,,,,,272.5,,272.5,D,Single-ply,3
David Glahn,110,Masters 40-46,40-46,M,,,,,,,,,,,272.5,,272.5,D,Single-ply,4
Mike Moore #2,110,Masters 40-46,40-46,M,,,,,,,,,,,262.5,,262.5,D,Single-ply,5
Gary Stevens,110,Masters 40-46,40-46,M,,,,,,,,,,,247.5,,247.5,D,Single-ply,6
Arthur Clayton,110,Masters 40-46,40-46,M,,,,,,,,,,,235,,235,D,Single-ply,7
Tom Brooks,125,Masters 40-46,40-46,M,,,,,,,,,,,300,,300,D,Single-ply,1
Ted Stewart,125,Masters 40-46,40-46,M,,,,,,,,,,,272.5,,272.5,D,Single-ply,2
Mario Cecarelli,125,Masters 40-46,40-46,M,,,,,,,,,,,247.5,,247.5,D,Single-ply,3
Tom DiFilippi,125,Masters 40-46,40-46,M,,,,,,,,,,,227.5,,227.5,D,Single-ply,4
Sam Pecktol,140,Masters 40-46,40-46,M,,,,,,,,,,,295,,295,D,Single-ply,1
Gary Brower,140,Masters 40-46,40-46,M,,,,,,,,,,,262.5,,262.5,D,Single-ply,2
Barry Duncan,140,Masters 40-46,40-46,M,,,,,,,,,,,240,,240,D,Single-ply,3
Corey Huwe,140,Masters 40-46,40-46,M,,,,,,,,,,,217.5,,217.5,D,Single-ply,4
Paul Ratsch,140,Masters 40-46,40-46,M,,,,,,,,,,,,,,D,Single-ply,DQ
Brian Rehberg,140+,Masters 40-46,40-46,M,,,,,,,,,,,275,,275,D,Single-ply,1
David Chase,140+,Masters 40-46,40-46,M,,,,,,,,,,,255,,255,D,Single-ply,2
Homi Shivaie,60,Masters 47-53,47-53,M,,,,,,,,,,,192.5,,192.5,D,Single-ply,1
John Tyree,75,Masters 47-53,47-53,M,,,,,,,,,,,272.5,,272.5,D,Single-ply,1
Richard Hagedorn,82.5,Masters 47-53,47-53,M,,,,,,,,,,,265,,265,D,Single-ply,1
Gene Alexander,82.5,Masters 47-53,47-53,M,,,,,,,,,,,257.5,,257.5,D,Single-ply,2
Mick Stevens,82.5,Masters 47-53,47-53,M,,,,,,,,,,,240,,240,D,Single-ply,3
Anders Wahlund,90,Masters 47-53,47-53,M,Sweden,,,,,,,,,,280,,280,D,Single-ply,1
Robert Ward #2,90,Masters 47-53,47-53,M,,,,,,,,,,,217.5,,217.5,D,Single-ply,2
Emmanuel Howard,90,Masters 47-53,47-53,M,,,,,,,,,,,210,,210,D,Single-ply,3
Warren Orbaugh,90,Masters 47-53,47-53,M,,,,,,,,,,,205,,205,D,Single-ply,4
Jim Snodgrass,90,Masters 47-53,47-53,M,,,,,,,,,,,200,,200,D,Single-ply,5
Chris Pena,90,Masters 47-53,47-53,M,,,,,,,,,,,185,,185,D,Single-ply,6
Craig DeSoto,100,Masters 47-53,47-53,M,,,,,,,,,,,265,,265,D,Single-ply,1
Patrick Fay,100,Masters 47-53,47-53,M,,,,,,,,,,,257.5,272.5,257.5,D,Single-ply,2
Steve Rosenberg,100,Masters 47-53,47-53,M,,,,,,,,,,,242.5,,242.5,D,Single-ply,3
Cliff Sandberg,110,Masters 47-53,47-53,M,,,,,,,,,,,272.5,,272.5,D,Single-ply,1
Roger Nelson,110,Masters 47-53,47-53,M,,,,,,,,,,,267.5,,267.5,D,Single-ply,2
Dale McPherson,110,Masters 47-53,47-53,M,,,,,,,,,,,252.5,,252.5,D,Single-ply,3
Bill Anderberg,110,Masters 47-53,47-53,M,,,,,,,,,,,240,,240,D,Single-ply,4
Tom Ekenberg,125,Masters 47-53,47-53,M,,,,,,,,,,,257.5,,257.5,D,Single-ply,1
Isaac Pankratz,125,Masters 47-53,47-53,M,,,,,,,,,,,235,,235,D,Single-ply,2
Leo Contreras,140+,Masters 47-53,47-53,M,,,,,,,,,,,215,,215,D,Single-ply,1
Keith Ward,140+,Masters 47-53,47-53,M,,,,,,,,,,,210,,210,D,Raw,2
Gordon Santee,75,Masters 54-60,54-60,M,,,,,,,,,,,237.5,242.5,237.5,D,Single-ply,1
Moses Timbal,75,Masters 54-60,54-60,M,,,,,,,,,,,192.5,,192.5,D,Single-ply,2
Christian Brenol,75,Masters 54-60,54-60,M,France,,,,,,,,,,170,,170,D,Single-ply,3
Mitch Sperling,82.5,Masters 54-60,54-60,M,,,,,,,,,,,190,,190,D,Single-ply,1
Frank Isernio,82.5,Masters 54-60,54-60,M,,,,,,,,,,,185,,185,D,Single-ply,2
Olício dos Santos Filho,90,Masters 54-60,54-60,M,Brazil,56,,,,,,,,,315,317.5,315,D,Single-ply,1
Dennis Johnson,90,Masters 54-60,54-60,M,,,,,,,,,,,282.5,,282.5,D,Single-ply,2
Goldfrey Holzinger,90,Masters 54-60,54-60,M,,,,,,,,,,,,,,D,Single-ply,DQ
Toe Preston,100,Masters 54-60,54-60,M,,,,,,,,,,,277.5,,277.5,D,Single-ply,1
Skip Hall,100,Masters 54-60,54-60,M,,,,,,,,,,,255,,255,D,Single-ply,2
Dave Cheek,100,Masters 54-60,54-60,M,,,,,,,,,,,215,,215,D,Single-ply,3
Daniel Smith III,110,Masters 54-60,54-60,M,,,,,,,,,,,200,,200,D,Single-ply,1
Jimmy Duckett,110,Masters 54-60,54-60,M,,,,,,,,,,,172.5,,172.5,D,Single-ply,2
Mike Fryar,125,Masters 54-60,54-60,M,,,,,,,,,,,252.5,,252.5,D,Single-ply,1
Bobby Dodd,125,Masters 54-60,54-60,M,,,,,,,,,,,212.5,,212.5,D,Single-ply,2
Robert O. Smith,140,Masters 54-60,54-60,M,Canada,,,,,,,,,,252.5,,252.5,D,Single-ply,1
Donald James,140+,Masters 54-60,54-60,M,,,,,,,,,,,235,240,235,D,Single-ply,1
Precious McKenzie,60,Masters 61-67,61-67,M,,64,,,,,,,,,200,202.5,200,D,Raw,1
Lindy Blas,67.5,Masters 61-67,61-67,M,,,,,,,,,,,200,,200,D,Single-ply,1
Richard Gidcumb,67.5,Masters 61-67,61-67,M,,,,,,,,,,,160,,160,D,Single-ply,2
Richard Abbott,75,Masters 61-67,61-67,M,,,,,,,,,,,220,,220,D,Single-ply,1
Rudy Lozano,82.5,Masters 61-67,61-67,M,,,,,,,,,,,220,,220,D,Single-ply,1
Pete Wilson,90,Masters 61-67,61-67,M,,,,,,,,,,,205,,205,D,Single-ply,1
Ron Jorgenson,90,Masters 61-67,61-67,M,,,,,,,,,,,177.5,,177.5,D,Single-ply,2
Harold Smith,100,Masters 61-67,61-67,M,,,,,,,,,,,187.5,,187.5,D,Single-ply,1
Omar Bruce,110,Masters 61-67,61-67,M,,,,,,,,,,,237.5,,237.5,D,Single-ply,1
Gary Johnson Sr,140,Masters 61-67,61-67,M,,,,,,,,,,,142.5,157.5,142.5,D,Single-ply,1
JP Krachunis,140,Masters 61-67,61-67,M,,,,,,,,,,,115,,115,D,Single-ply,2
Jim Schall,75,Masters 68-74,68-74,M,,,,,,,,,,,157.5,,157.5,D,Single-ply,1
Ross Phillips,82.5,Masters 68-74,68-74,M,,,,,,,,,,,220,,220,D,Single-ply,1
Austin DeMello,90,Masters 68-74,68-74,M,,,,,,,,,,,157.5,,157.5,D,Single-ply,1
Robert Stephan,75,Masters 75-79,75-79,M,,77,,,,,,,,,147.5,152.5,147.5,D,Single-ply,1
Donald Dreyer,82.5,Masters 75-79,75-79,M,,79,,,,,,,,,75,77.5,75,D,Single-ply,1
Adrian Brooks,44,Teen 13-15,13-15,M,,,,,,,,,,,110,,110,D,Single-ply,1
V. Brown,44,Teen 13-15,13-15,M,,,,,,,,,,,57.5,,57.5,D,Single-ply,2
Johnny Hernandez Jr,48,Teen 13-15,13-15,M,,,,,,,,,,,92.5,,92.5,D,Single-ply,1
Stephen Lynn,52,Teen 13-15,13-15,M,,,,,,,,,,,112.5,,112.5,D,Single-ply,1
Rocky Hernandez,52,Teen 13-15,13-15,M,,,,,,,,,,,82.5,,82.5,D,Single-ply,2
Clayton Pinson,56,Teen 13-15,13-15,M,,,,,,,,,,,100,,100,D,Single-ply,1
Hayward Blake,67.5,Teen 13-15,13-15,M,,15,,,,,,,,,182.5,,182.5,D,Single-ply,1
Michael Enloe,67.5,Teen 13-15,13-15,M,,,,,,,,,,,142.5,,142.5,D,Single-ply,2
Andy Munsey,67.5,Teen 13-15,13-15,M,,,,,,,,,,,140,,140,D,Single-ply,3
Adam Contreras #1,67.5,Teen 13-15,13-15,M,,,,,,,,,,,90,,90,D,Single-ply,4
Michael Minahan,75,Teen 13-15,13-15,M,,,,,,,,,,,137.5,,137.5,D,Single-ply,1
Kevin Bowen,90,Teen 13-15,13-15,M,,,,,,,,,,,177.5,,177.5,D,Single-ply,1
Keenan Browne,100,Teen 13-15,13-15,M,,,,,,,,,,,162.5,,162.5,D,Single-ply,1
Nick Heppner,110,Teen 13-15,13-15,M,,15,,,,,,,,,242.5,,242.5,D,Single-ply,1
Stefen Hudson,48,Teen 16-19,16-19,M,,,,,,,,,,,80,,80,D,Single-ply,1
Gary Remiticado,60,Teen 16-19,16-19,M,,,,,,,,,,,192.5,,192.5,D,Single-ply,1
Ramyar Baradari,67.5,Teen 16-19,16-19,M,,,,,,,,,,,190,,190,D,Single-ply,1
Travis Godawa,67.5,Teen 16-19,16-19,M,,,,,,,,,,,160,,160,D,Single-ply,2
Herbie Allen,67.5,Teen 16-19,16-19,M,,,,,,,,,,,105,,105,D,Single-ply,3
Casey Guches,75,Teen 16-19,16-19,M,,,,,,,,,,,212.5,,212.5,D,Single-ply,1
Rick Mitchell,75,Teen 16-19,16-19,M,,,,,,,,,,,207.5,,207.5,D,Single-ply,2
Tyler Charouhas,75,Teen 16-19,16-19,M,,,,,,,,,,,205,,205,D,Single-ply,3
Jesse Kim,75,Teen 16-19,16-19,M,,,,,,,,,,,182.5,,182.5,D,Single-ply,4
Luke Bevill,75,Teen 16-19,16-19,M,,,,,,,,,,,162.5,,162.5,D,Single-ply,5
Frank Silva,82.5,Teen 16-19,16-19,M,,,,,,,,,,,205,,205,D,Single-ply,1
Ryan Ford,82.5,Teen 16-19,16-19,M,,,,,,,,,,,160,,160,D,Single-ply,2
Tyrese Hayes,90,Teen 16-19,16-19,M,,,,,,,,,,,282.5,,282.5,D,Single-ply,1
Phil Davi,90,Teen 16-19,16-19,M,,19,,,,,,,,,275,,275,D,Single-ply,2
K. Eslick,90,Teen 16-19,16-19,M,,,,,,,,,,,252.5,,252.5,D,Single-ply,3
Anthony Schlegel,100,Teen 16-19,16-19,M,,,,,,,,,,,285,,285,D,Single-ply,1
DeShaun Milliken,125,Teen 16-19,16-19,M,,17,,,,,,,,,285,,285,D,Single-ply,1
Lee Taylor,125,Teen 16-19,16-19,M,,,,,,,,,,,285,,285,D,Single-ply,2
A. Bales,125,Teen 16-19,16-19,M,,,,,,,,,,,192.5,,192.5,D,Single-ply,3
Jon Shapiro,67.5,Class 1,,M,,,,,,,,,,,165,,165,D,Single-ply,1
Joseph Withers,75,Class 1,,M,,,,,,,,,,,215,,215,D,Single-ply,1
Joe Ojeda,75,Class 1,,M,,,,,,,,,,,205,,205,D,Single-ply,2
Eric Kuskie,75,Class 1,,M,,,,,,,,,,,195,,195,D,Single-ply,3
Al Gunoe,75,Class 1,,M,,,,,,,,,,,187.5,,187.5,D,Single-ply,4
Luke Bevill,75,Class 1,,M,,,,,,,,,,,162.5,,162.5,D,Single-ply,5
Mark Pearce,82.5,Class 1,,M,,,,,,,,,,,240,,240,D,Single-ply,1
Johnny Hernandez,82.5,Class 1,,M,,,,,,,,,,,237.5,,237.5,D,Single-ply,2
Steve McMillan,82.5,Class 1,,M,,,,,,,,,,,187.5,,187.5,D,Single-ply,3
Bob Vickery,82.5,Class 1,,M,,,,,,,,,,,157.5,,157.5,D,Single-ply,4
Alexander Geitner,90,Class 1,,M,Germany,,,,,,,,,,237.5,,237.5,D,Single-ply,1
Steve Ughe,90,Class 1,,M,,,,,,,,,,,227.5,,227.5,D,Single-ply,2
Wade Ricard,90,Class 1,,M,,,,,,,,,,,215,,215,D,Single-ply,3
Troy Fryar,100,Class 1,,M,,,,,,,,,,,272.5,,272.5,D,Single-ply,1
Rick Kornis,100,Class 1,,M,,,,,,,,,,,227.5,,227.5,D,Single-ply,2
Jerry Hertager,110,Class 1,,M,,,,,,,,,,,295,,295,D,Single-ply,1
Robert Cuddeback,110,Class 1,,M,,,,,,,,,,,242.5,,242.5,D,Single-ply,2
Mike Smyser,110,Class 1,,M,,,,,,,,,,,237.5,,237.5,D,Single-ply,3
Joe Garcia,110,Class 1,,M,,,,,,,,,,,227.5,,227.5,D,Single-ply,4
James Mozingo,110,Class 1,,M,,,,,,,,,,,215,,215,D,Single-ply,5
Darryl Ng,125,Class 1,,M,,,,,,,,,,,275,,275,D,Single-ply,1
William Pontius,125,Class 1,,M,,,,,,,,,,,260,,260,D,Single-ply,2
Tom Ekenberg,125,Class 1,,M,,,,,,,,,,,257.5,,257.5,D,Single-ply,3
Mike Fryar,125,Class 1,,M,,,,,,,,,,,252.5,,252.5,D,Single-ply,4
Greg Ramsdell,125,Class 1,,M,,,,,,,,,,,220,,220,D,Single-ply,5
Gary Brower,140,Class 1,,M,,,,,,,,,,,262.5,,262.5,D,Single-ply,1
Barry Duncan,140,Class 1,,M,,,,,,,,,,,240,,240,D,Single-ply,2
Corey Huwe,140,Class 1,,M,,,,,,,,,,,217.5,,217.5,D,Single-ply,3
David Chase,140+,Class 1,,M,,,,,,,,,,,255,,255,D,Single-ply,1
Leo Contreras,140+,Class 1,,M,,,,,,,,,,,212.5,,212.5,D,Single-ply,2
Joe Sermeno,75,Law/Fire Open,,M,,,,,,,,,,,200,,200,D,Single-ply,1
Eric Kuskie,75,Law/Fire Open,,M,,,,,,,,,,,195,,195,D,Single-ply,2
Kirk Nakamura,82.5,Law/Fire Open,,M,,,,,,,,,,,235,,235,D,Single-ply,1
Richard McKeefer,82.5,Law/Fire Open,,M,,,,,,,,,,,227.5,,227.5,D,Single-ply,2
Mike Smyser,110,Law/Fire Open,,M,,,,,,,,,,,237.5,,237.5,D,Single-ply,1
Mike Camlin,125,Law/Fire Open,,M,,,,,,,,,,,335,,335,D,Single-ply,1
Walt Faulkner,125,Law/Fire Open,,M,,,,,,,,,,,272.5,,272.5,D,Single-ply,2
Andy Ellis,82.5,Law/Fire Submasters 34-39,34-39,M,,,,,,,,,,,235,,235,D,Single-ply,1
Jason Jackson #7,100,Law/Fire Submasters 34-39,34-39,M,,,,,,,,,,,272.5,,272.5,D,Single-ply,1
Darryl Ng,125,Law/Fire Submasters 34-39,34-39,M,,,,,,,,,,,275,,275,D,Single-ply,1
Rick Russell,140,Law/Fire Submasters 34-39,34-39,M,,,,,,,,,,,307.5,,307.5,D,Single-ply,1
Malcolm Ahlo Jr,140,Law/Fire Submasters 34-39,34-39,M,,,,,,,,,,,282.5,,282.5,D,Single-ply,2
Joe Sermeno,75,Law/Fire Masters 40-47,40-47,M,,,,,,,,,,,200,,200,D,Single-ply,1
Robert Straker,75,Law/Fire Masters 40-47,40-47,M,,,,,,,,,,,182.5,,182.5,D,Single-ply,2
Michael Godawa,90,Law/Fire Masters 40-47,40-47,M,,,,,,,,,,,205,,205,D,Single-ply,1
Arthur Clayton,110,Law/Fire Masters 40-47,40-47,M,,,,,,,,,,,235,,235,D,Single-ply,1
Walt Faulkner,125,Law/Fire Masters 40-47,40-47,M,,,,,,,,,,,272.5,,272.5,D,Single-ply,1
John Minahan,140,Law/Fire Masters 40-47,40-47,M,,,,,,,,,,,235,,235,D,Single-ply,1
Tommy Green,90,Law/Fire Masters 48+,48-999,M,,,,,,,,,,,210,,210,D,Single-ply,1
Emmanuel Howard,90,Law/Fire Masters 48+,48-999,M,,,,,,,,,,,210,,210,D,Single-ply,2
Patrick Fay,100,Law/Fire Masters 48+,48-999,M,,,,,,,,,,,257.5,,257.5,D,Single-ply,1
Ana Santiago Ordonez,44,Open,,F,Guatemala,,,,,,,,,,147.5,150,147.5,D,Single-ply,1
Carmela Baqui,48,Open,,F,,,,,,,,,,,147.5,150,147.5,D,Single-ply,1
Vickie McNeely,48,Open,,F,,,,,,,,,,,115,,115,D,Single-ply,2
Mary Pederson,48,Open,,F,,,,,,,,,,,75,,75,D,Single-ply,3
Valerie Tyree,52,Open,,F,,,,,,,,,,,195,,195,D,Single-ply,1
Jill Remiticado,56,Open,,F,,18,,,,,,,,,150,,150,D,Single-ply,1
Jenni Bechtold,56,Open,,F,,,,,,,,,,,142.5,,142.5,D,Single-ply,2
Beth Higginbotham,56,Open,,F,,,,,,,,,,,117.5,,117.5,D,Single-ply,3
Jerri-Lynn Lippert,60,Open,,F,,,,,,,,,,,185,,185,D,Single-ply,1
Lynn Robinson,60,Open,,F,,,,,,,,,,,140,,140,D,Single-ply,2
Azure Skellington,60,Open,,F,,,,,,,,,,,130,,130,D,Single-ply,3
Flozzell Thomas-Stewart,67.5,Open,,F,,,62.6,,,,,,,,165,,165,D,Single-ply,1
Suzanne Williams,67.5,Open,,F,,,,,,,,,,,155,,155,D,Single-ply,2
Mariam Power,75,Open,,F,Canada,25,,,,,,,,,177.5,,177.5,D,Single-ply,1
Mary Jacobson,75,Open,,F,,45,,,,,,,,,170,,170,D,Single-ply,2
Michelle Jagoda,75,Open,,F,,,,,,,,,,,155,,155,D,Single-ply,3
Betty Ann Heriford,75,Open,,F,,,,,,,,,,,140,,140,D,Single-ply,4
Valli Vance,82.5,Open,,F,,,,,,,,,,,122.5,127.5,122.5,D,Single-ply,1
Kelly Hernandez,90,Open,,F,,,,,,,,,,,137.5,,137.5,D,Single-ply,1
Azure Skellington,60,Teen 13-15,13-15,F,,,,,,,,,,,130,,130,D,Single-ply,1
Merissa Baker,52,Teen 16-19,16-19,F,,,,,,,,,,,107.5,110,107.5,D,Single-ply,1
Jill Remiticado,56,Teen 16-19,16-19,F,,18,,,,,,,,,150,152.5,150,D,Single-ply,1
Liz Kert-Kravitz,67.5,Teen 16-19,16-19,F,,,,,,,,,,,115,,115,D,Single-ply,1
Julie Waltenbaugh,67.5,Teen 16-19,16-19,F,,,,,,,,,,,72.5,,72.5,D,Single-ply,2
Vicki Paton,48,Submasters 34-39,34-39,F,,,,,,,,,,,107.5,110,107.5,D,Single-ply,1
Heidi Gantz,60,Submasters 34-39,34-39,F,,,,,,,,,,,165,170,165,D,Single-ply,1
Jennifer Souders,60,Submasters 34-39,34-39,F,,,,,,,,,,,120,,120,D,Single-ply,2
Hazel Greene,60,Submasters 34-39,34-39,F,,,,,,,,,,,102.5,,102.5,D,Single-ply,3
Susan Gall,67.5,Submasters 34-39,34-39,F,,,,,,,,,,,165,,165,D,Single-ply,1
Suzanne Williams,67.5,Submasters 34-39,34-39,F,,,,,,,,,,,155,,155,D,Single-ply,2
Cindy Wurdinger-Kelly,67.5,Submasters 34-39,34-39,F,,,,,,,,,,,130,,130,D,Single-ply,3
Daria Cal,90+,Submasters 34-39,34-39,F,,,,,,,,,,,165,,165,D,Single-ply,1
Jan Morales,90+,Submasters 34-39,34-39,F,Brazil,,,,,,,,,,132.5,,132.5,D,Single-ply,2
Tamara Coulombe,52,Juniors 20-25,20-25,F,,,,,,,,,,,125,,125,D,Single-ply,1
Jenni Bechtold,56,Juniors 20-25,20-25,F,,,,,,,,,,,142.5,,142.5,D,Single-ply,1
Beth Higginbotham,56,Juniors 20-25,20-25,F,,,,,,,,,,,117.5,,117.5,D,Single-ply,2
Carri McKeefer,56,Juniors 20-25,20-25,F,,,,,,,,,,,107.5,,107.5,D,Single-ply,3
Erin Moore,60,Juniors 20-25,20-25,F,,,,,,,,,,,142.5,,142.5,D,Single-ply,1
Karolina Liuska,60,Juniors 20-25,20-25,F,Sweden,,,,,,,,,,105,,105,D,Single-ply,2
Bonnie McMillion,67.5,Juniors 20-25,20-25,F,,,,,,,,,,,167.5,,167.5,D,Single-ply,1
Anna Meisner,82.5,Juniors 20-25,20-25,F,,,,,,,,,,,137.5,,137.5,D,Single-ply,1
Heather Myers,90,Juniors 20-25,20-25,F,,,,,,,,,,,137.5,150,137.5,D,Single-ply,1
Vickie McNeely,48,Masters 40-46,40-46,F,,,,,,,,,,,115,,115,D,Single-ply,1
Carol Patterson,56,Masters 40-46,40-46,F,,45,55.34,,,,,,,,152.5,,152.5,D,Single-ply,1
Lynn Robinson,60,Masters 40-46,40-46,F,,,,,,,,,,,140,,140,D,Single-ply,1
Sandy Gomez-Leon,60,Masters 40-46,40-46,F,,,,,,,,,,,137.5,,137.5,D,Single-ply,2
Mary Jacobson,75,Masters 40-46,40-46,F,,45,,,,,,,,,175,,175,D,Single-ply,1
Valli Vance,82.5,Masters 40-46,40-46,F,,,,,,,,,,,122.5,127.5,122.5,D,Single-ply,1
Patty Pendergast,60,Masters 47-53,47-53,F,,,,,,,,,,,117.5,,117.5,D,Single-ply,1
Heidi Rodriguez,60,Masters 47-53,47-53,F,Guatemala,,,,,,,,,,102.5,,102.5,D,Single-ply,2
Betty Ann Heriford,75,Masters 47-53,47-53,F,,,,,,,,,,,140,,140,D,Single-ply,1
Cathy Chapman,75,Masters 47-53,47-53,F,,,,,,,,,,,125,,125,D,Single-ply,2
Mary Coffey,67.5,Masters 54-60,54-60,F,,,,,,,,,,,92.5,,92.5,D,Single-ply,1
Thea Strom,90,Masters 54-60,54-60,F,,,,,,,,,,,115,,115,D,Single-ply,1
Grace Cloninger,75,Masters 61-67,61-67,F,,65,,,,,,,,,127.5,,127.5,D,Single-ply,1
Gloria Mighell,90,Masters 68-74,68-74,F,,73,,,,,,,,,37.5,40,37.5,D,Single-ply,1
David Morgan,56,Special Olympics,,M,,,,,,,52.5,,,,,,52.5,B,Single-ply,1
Michael Bell,60,Special Olympics,,M,,,,,,,50,,,,,,50,B,Single-ply,1
Rick Braae,60,Special Olympics,,M,,,,,,,35,,,,,,35,B,Single-ply,2
Jon Shapiro,67.5,Special Olympics,,M,,,,,,,115,,,,,,115,B,Single-ply,1
Gary Heuer,67.5,Special Olympics,,M,,,,,,,57.5,,,,,,57.5,B,Single-ply,2
Jonas Freeburg,75,Special Olympics,,M,,,,,,,50,,,,,,50,B,Single-ply,1
Bernadette Hanson,75,Special Olympics,,F,,41,,,,,45,,,,,,45,B,Single-ply,2
Lauren Dare,75,Special Olympics,,F,,,,,,,42.5,,,,,,42.5,B,Single-ply,3
D. Ruffini,75,Special Olympics,,M,,,,,,,37.5,,,,,,37.5,B,Single-ply,4
K. Jones,75,Special Olympics,,M,,,,,,,,,,,,,,B,Single-ply,DQ
Brent Ruth,82.5,Special Olympics,,M,,,,,,,95,,,,,,95,B,Single-ply,1
Antwon Belfils,82.5,Special Olympics,,M,,,,,,,67.5,,,,,,67.5,B,Single-ply,2
Andrew Bixler,90,Special Olympics,,M,,,,,,,77.5,80,,,,,77.5,B,Single-ply,1
Richard Dunning,90,Special Olympics,,M,,,,,,,62.5,,,,,,62.5,B,Single-ply,2
Steve Vaughn,100,Special Olympics,,M,,,,,,,87.5,,,,,,87.5,B,Single-ply,1
John Wooten Jr,100,Special Olympics,,M,,,,,,,87.5,,,,,,87.5,B,Single-ply,2
Casey Dean,100,Special Olympics,,M,,,,,,,80,,,,,,80,B,Single-ply,3
B. Kincaid,110,Special Olympics,,M,,,,,,,,,,,,,,B,Single-ply,DQ
Paul Schaefer,125,Special Olympics,,M,,58,,,,,57.5,,,,,,57.5,B,Single-ply,1
David Ashcraft,125,Special Olympics,,M,,,,,,,57.5,,,,,,57.5,B,Single-ply,2
S. Molinari,125,Special Olympics,,M,,,,,,,55,,,,,,55,B,Single-ply,3
David Morgan,56,Special Olympics,,M,,,,,,,,,,,130,,130,D,Single-ply,1
Rick Braae,60,Special Olympics,,M,,,,,,,,,,,85,,85,D,Single-ply,1
Jon Shapiro,67.5,Special Olympics,,M,,,,,,,,,,,160,,160,D,Single-ply,1
Gary Heuer,67.5,Special Olympics,,M,,,,,,,,,,,82.5,,82.5,D,Single-ply,2
Bernadette Hanson,75,Special Olympics,,F,,,,,,,,,,,125,,125,D,Single-ply,1
Lauren Dare,75,Special Olympics,,F,,41,,,,,,,,,112.5,,112.5,D,Single-ply,2
Jonas Freeburg,75,Special Olympics,,M,,,,,,,,,,,95,,95,D,Single-ply,3
Antwon Belfils,82.5,Special Olympics,,M,,,,,,,,,,,170,,170,D,Single-ply,1
Brent Ruth,82.5,Special Olympics,,M,,,,,,,,,,,142.5,,142.5,D,Single-ply,2
Andrew Bixler,90,Special Olympics,,M,,,,,,,,,,,155,,155,D,Single-ply,1
Richard Dunning,90,Special Olympics,,M,,,,,,,,,,,107.5,,107.5,D,Single-ply,2
Casey Dean,100,Special Olympics,,M,,,,,,,,,,,180,,180,D,Single-ply,1
John Wooten Jr,100,Special Olympics,,M,,,,,,,,,,,125,,125,D,Single-ply,2
Steve Vaughn,100,Special Olympics,,M,,,,,,,,,,,112.5,,112.5,D,Single-ply,3
Paul Schaefer,125,Special Olympics,,M,,58,,,,,,,,,132.5,,132.5,D,Single-ply,1
David Ashcraft,125,Special Olympics,,M,,,,,,,,,,,125,,125,D,Single-ply,2
S. Molinari,125,Special Olympics,,M,,,,,,,,,,,112.5,,112.5,D,Single-ply,3
